# Blender v2.79 (sub 0) OBJ File: 'belph.blend'
# www.blender.org
mtllib belph.mtl
o Body
v -0.161280 0.991500 0.140000
v -0.388800 1.931775 0.180750
v -0.161280 0.991500 -0.140000
v -0.388800 1.931775 -0.152250
v 0.161280 0.991500 0.140000
v 0.388800 1.931775 0.180750
v 0.161280 0.991500 -0.140000
v 0.388800 1.931775 -0.152250
v -0.274176 1.747500 0.200000
v -0.274176 1.747500 -0.200000
v 0.274176 1.747500 -0.200000
v 0.274176 1.747500 0.200000
v -0.444891 1.846725 0.180750
v -0.444891 1.846725 -0.179250
v 0.444891 1.846725 -0.179250
v 0.444891 1.846725 0.180750
v 0.000000 0.991500 -0.180000
v 0.000000 1.936500 -0.200000
v 0.000000 0.991500 0.140000
v 0.000000 1.936500 0.200000
v 0.000000 1.747500 0.260000
v 0.000000 1.747500 -0.240000
v 0.000000 1.842000 0.240000
v 0.000000 1.842000 -0.230000
v -0.230149 1.180477 -0.190723
v 0.230149 1.180477 -0.190723
v 0.230149 1.180477 0.190723
v -0.230149 1.180477 0.190723
v 0.000000 1.179067 -0.230723
v 0.000000 1.179067 0.210723
v -0.288953 1.549067 0.220000
v -0.288953 1.549067 -0.220000
v 0.288953 1.549067 -0.220000
v 0.288953 1.549067 0.220000
v 0.000000 1.548498 -0.260000
v 0.000000 1.548498 0.240000
v 0.000000 0.963150 0.000000
v -0.161280 0.991500 0.000000
v -0.432000 1.936500 0.015000
v 0.161280 0.991500 0.000000
v 0.432000 1.936500 0.015000
v 0.274176 1.747500 0.000000
v -0.274176 1.747500 0.000000
v 0.494323 1.842000 0.000000
v -0.494323 1.842000 0.000000
v 0.000000 1.983750 0.000000
v -0.230149 1.180477 0.000000
v 0.230149 1.180477 0.000000
v -0.288953 1.549067 0.000000
v 0.288953 1.549067 0.000000
v 0.206917 1.623211 0.183871
v 0.200089 1.600848 0.263487
v 0.179573 1.581697 0.173923
v 0.181163 1.575132 0.247250
v 0.166452 1.650488 0.193727
v 0.171763 1.619942 0.270387
v 0.139107 1.608974 0.183779
v 0.152837 1.594226 0.254149
v 0.153481 1.586440 0.176719
v 0.162944 1.579169 0.247220
v 0.192544 1.645745 0.190931
v 0.189982 1.615906 0.270416
v 0.201917 1.596609 0.176785
v 0.196696 1.583899 0.253890
v 0.144108 1.635576 0.190865
v 0.156230 1.611176 0.263746
v 0.164324 1.556921 0.323160
v 0.182802 1.571217 0.293376
v 0.174593 1.566584 0.289866
v 0.164964 1.568717 0.289851
v 0.159623 1.576675 0.293513
v 0.161416 1.585633 0.298585
v 0.169625 1.590266 0.302094
v 0.179254 1.588133 0.302110
v 0.184595 1.580175 0.298448
v 0.239994 1.903507 0.039202
v 0.284677 2.056869 0.026164
v 0.265429 1.898797 -0.067900
v 0.298735 2.034990 -0.046253
v 0.334921 1.885931 0.067900
v 0.351126 2.044567 0.046253
v 0.360357 1.881222 -0.039202
v 0.365184 2.022687 -0.026164
v 0.318344 1.889001 -0.076501
v 0.334973 2.024150 -0.051726
v 0.282007 1.895728 0.076501
v 0.314889 2.055407 0.051726
v 0.232370 1.904918 -0.020498
v 0.277467 2.048566 -0.014349
v 0.367980 1.879811 0.020498
v 0.372394 2.030991 0.014349
v 0.362299 2.174593 -0.060148
v 0.318590 2.120820 -0.031737
v 0.329831 2.113645 -0.048598
v 0.348982 2.107916 -0.051491
v 0.364949 2.107143 -0.037982
v 0.368759 2.111531 -0.016571
v 0.357519 2.118706 0.000290
v 0.338368 2.124435 0.003183
v 0.322401 2.125208 -0.010327
v -0.206917 1.623211 0.183871
v -0.200089 1.600848 0.263487
v -0.179573 1.581697 0.173923
v -0.181163 1.575132 0.247250
v -0.166452 1.650488 0.193727
v -0.171763 1.619942 0.270387
v -0.139107 1.608974 0.183779
v -0.152837 1.594226 0.254149
v -0.153481 1.586440 0.176719
v -0.162944 1.579169 0.247220
v -0.192544 1.645745 0.190931
v -0.189982 1.615906 0.270416
v -0.201917 1.596609 0.176785
v -0.196696 1.583899 0.253890
v -0.144108 1.635576 0.190865
v -0.156230 1.611176 0.263746
v -0.164324 1.556921 0.323160
v -0.182802 1.571217 0.293376
v -0.174593 1.566584 0.289866
v -0.164964 1.568717 0.289851
v -0.159623 1.576675 0.293513
v -0.161416 1.585633 0.298585
v -0.169625 1.590266 0.302094
v -0.179254 1.588133 0.302110
v -0.184595 1.580175 0.298448
v -0.239994 1.903507 0.039202
v -0.284677 2.056869 0.026164
v -0.265429 1.898797 -0.067900
v -0.298735 2.034990 -0.046253
v -0.334921 1.885931 0.067900
v -0.351126 2.044567 0.046253
v -0.360357 1.881222 -0.039202
v -0.365184 2.022687 -0.026164
v -0.318344 1.889001 -0.076501
v -0.334973 2.024150 -0.051726
v -0.282007 1.895728 0.076501
v -0.314889 2.055406 0.051726
v -0.232370 1.904918 -0.020498
v -0.277467 2.048566 -0.014349
v -0.367980 1.879811 0.020498
v -0.372394 2.030991 0.014349
v -0.362299 2.174593 -0.060148
v -0.318590 2.120820 -0.031737
v -0.329831 2.113645 -0.048598
v -0.348982 2.107916 -0.051491
v -0.364949 2.107143 -0.037982
v -0.368759 2.111531 -0.016571
v -0.357519 2.118706 0.000290
v -0.338368 2.124435 0.003183
v -0.322401 2.125208 -0.010327
vt 0.004532 0.470891
vt 0.040695 0.466962
vt 0.049703 0.517539
vt 0.016713 0.526379
vt 0.458460 0.276729
vt 0.458460 0.307874
vt 0.328270 0.309042
vt 0.309987 0.280475
vt 0.358150 0.482699
vt 0.322330 0.476366
vt 0.313312 0.426077
vt 0.347639 0.425407
vt 0.152776 0.373370
vt 0.152324 0.405364
vt 0.023011 0.401707
vt 0.004532 0.374685
vt 0.210438 0.102179
vt 0.156618 0.101542
vt 0.157220 0.058997
vt 0.181370 0.475936
vt 0.053047 0.417387
vt 0.183423 0.414428
vt 0.154080 0.281098
vt 0.153200 0.343398
vt 0.061594 0.343332
vt 0.057841 0.279965
vt 0.573407 0.596477
vt 0.573407 0.659484
vt 0.513606 0.659318
vt 0.507697 0.596430
vt 0.458460 0.184245
vt 0.458460 0.246866
vt 0.366827 0.248070
vt 0.362238 0.184720
vt 0.432924 0.596477
vt 0.432924 0.659484
vt 0.373122 0.659318
vt 0.367214 0.596430
vt 0.573405 0.738473
vt 0.519010 0.723966
vt 0.432926 0.738473
vt 0.378974 0.723969
vt 0.550092 0.248070
vt 0.606932 0.280475
vt 0.244771 0.345921
vt 0.300924 0.378875
vt 0.554682 0.184720
vt 0.250313 0.282686
vt 0.211850 0.017616
vt 0.211411 0.059902
vt 0.281689 0.405364
vt 0.588650 0.309042
vt 0.232446 0.164777
vt 0.155732 0.164264
vt 0.513824 0.004532
vt 0.535826 0.067293
vt 0.458460 0.068295
vt 0.458460 0.007150
vt 0.432924 0.414428
vt 0.432924 0.478359
vt 0.375977 0.478357
vt 0.391123 0.414428
vt 0.381094 0.067293
vt 0.403095 0.004532
vt 0.573407 0.414428
vt 0.573407 0.478359
vt 0.516461 0.478357
vt 0.531607 0.414428
vt 0.079033 0.162609
vt 0.102802 0.100658
vt 0.157989 0.004532
vt 0.103780 0.016089
vt 0.103024 0.058370
vt 0.630354 0.478357
vt 0.639117 0.596430
vt 0.489870 0.478357
vt 0.498634 0.596430
vt 0.615208 0.414428
vt 0.474724 0.414428
vt 0.309967 0.526229
vt 0.179313 0.537523
vt 0.492725 0.659318
vt 0.487321 0.723966
vt 0.633209 0.659318
vt 0.627357 0.723969
vt 0.342295 0.537251
vt 0.018841 0.414428
vt 0.822944 0.382438
vt 0.800417 0.376863
vt 0.802568 0.371146
vt 0.824553 0.373677
vt 0.863555 0.401862
vt 0.863777 0.380166
vt 0.869953 0.379351
vt 0.872484 0.401336
vt 0.881245 0.399727
vt 0.875671 0.377201
vt 0.880790 0.374114
vt 0.889905 0.396933
vt 0.816176 0.399457
vt 0.793632 0.386777
vt 0.797331 0.381983
vt 0.820149 0.391098
vt 0.788857 0.371312
vt 0.789687 0.368207
vt 0.803383 0.364969
vt 0.789978 0.364915
vt 0.885584 0.370416
vt 0.898265 0.392959
vt 0.825079 0.364748
vt 0.872899 0.364046
vt 0.875174 0.361615
vt 0.870120 0.365640
vt 0.787262 0.374091
vt 0.779120 0.364748
vt 0.863555 0.355903
vt 0.867015 0.366470
vt 0.784832 0.376367
vt 0.863722 0.366762
vt 0.406856 0.352839
vt 0.452828 0.364215
vt 0.448440 0.375884
vt 0.403573 0.370719
vt 0.356693 0.836788
vt 0.356241 0.881067
vt 0.343636 0.882729
vt 0.338470 0.837863
vt 0.320591 0.841146
vt 0.331967 0.887118
vt 0.321519 0.893417
vt 0.302917 0.846849
vt 0.420668 0.318105
vt 0.466676 0.343984
vt 0.459128 0.353768
vt 0.412559 0.335165
vt 0.476422 0.375544
vt 0.474727 0.381881
vt 0.446777 0.388489
vt 0.474133 0.388600
vt 0.311736 0.900965
vt 0.285857 0.854957
vt 0.402499 0.388941
vt 0.337624 0.913965
vt 0.332980 0.918926
vt 0.343296 0.910711
vt 0.479676 0.369873
vt 0.496294 0.388941
vt 0.356693 0.930583
vt 0.349633 0.909017
vt 0.484636 0.365229
vt 0.356352 0.908422
vt 0.822944 0.382438
vt 0.824553 0.373677
vt 0.802568 0.371146
vt 0.800417 0.376863
vt 0.863555 0.401862
vt 0.872484 0.401336
vt 0.869953 0.379351
vt 0.863777 0.380166
vt 0.881245 0.399727
vt 0.889905 0.396933
vt 0.880790 0.374114
vt 0.875671 0.377201
vt 0.816176 0.399457
vt 0.820149 0.391098
vt 0.797331 0.381983
vt 0.793632 0.386777
vt 0.789687 0.368207
vt 0.788857 0.371312
vt 0.803383 0.364969
vt 0.789978 0.364915
vt 0.898265 0.392959
vt 0.885584 0.370416
vt 0.825079 0.364748
vt 0.875174 0.361615
vt 0.872899 0.364046
vt 0.870120 0.365640
vt 0.779120 0.364748
vt 0.787262 0.374091
vt 0.863555 0.355903
vt 0.867015 0.366470
vt 0.784832 0.376367
vt 0.863722 0.366762
vt 0.406856 0.352839
vt 0.403573 0.370719
vt 0.448440 0.375884
vt 0.452828 0.364215
vt 0.356693 0.836788
vt 0.338470 0.837863
vt 0.343636 0.882729
vt 0.356241 0.881067
vt 0.320591 0.841146
vt 0.302917 0.846849
vt 0.321519 0.893417
vt 0.331967 0.887118
vt 0.420668 0.318105
vt 0.412559 0.335165
vt 0.459128 0.353768
vt 0.466676 0.343984
vt 0.474727 0.381881
vt 0.476422 0.375544
vt 0.446777 0.388489
vt 0.474133 0.388600
vt 0.285857 0.854957
vt 0.311736 0.900965
vt 0.402499 0.388941
vt 0.332980 0.918926
vt 0.337624 0.913965
vt 0.343296 0.910711
vt 0.496294 0.388941
vt 0.479676 0.369873
vt 0.356693 0.930583
vt 0.349633 0.909017
vt 0.484636 0.365229
vt 0.356352 0.908422
vn -0.7924 0.5721 -0.2118
vn 0.1107 0.3320 -0.9368
vn 0.8227 0.5242 0.2199
vn -0.0909 0.2435 0.9656
vn 0.0000 -0.9801 0.1985
vn -0.0633 0.9870 0.1477
vn -0.1406 0.0052 0.9900
vn 0.9972 0.0743 0.0000
vn 0.1398 0.1043 -0.9847
vn -0.9972 0.0743 0.0000
vn -0.1630 0.0559 0.9850
vn 0.4457 -0.8925 0.0689
vn 0.1248 0.0474 -0.9911
vn -0.4460 -0.8924 -0.0692
vn -0.1248 0.0474 -0.9911
vn 0.1630 0.0559 0.9850
vn -0.1398 0.1043 -0.9847
vn 0.1406 0.0052 0.9900
vn 0.0633 0.9870 0.1477
vn 0.1731 -0.9849 0.0000
vn 0.0909 0.2435 0.9656
vn -0.1107 0.3320 -0.9368
vn 0.0496 -0.3148 0.9479
vn -0.1928 -0.2880 -0.9380
vn -0.9396 -0.3424 0.0000
vn 0.1928 -0.2880 -0.9380
vn 0.9396 -0.3424 0.0000
vn -0.0496 -0.3148 0.9479
vn 0.0769 -0.0849 0.9934
vn -0.1520 -0.0902 -0.9843
vn -0.9875 -0.1575 0.0000
vn 0.1520 -0.0902 -0.9843
vn 0.9875 -0.1575 0.0000
vn -0.0769 -0.0849 0.9934
vn 0.0386 -0.9871 -0.1555
vn -0.0386 -0.9871 -0.1555
vn -0.1731 -0.9849 0.0000
vn 0.0738 0.9862 -0.1482
vn -0.4457 -0.8925 0.0689
vn 0.4460 -0.8924 -0.0692
vn -0.0738 0.9862 -0.1482
vn 0.7924 0.5721 -0.2118
vn -0.8227 0.5242 0.2199
vn 0.5445 -0.8335 -0.0937
vn -0.8285 -0.5578 0.0492
vn -0.5583 0.7556 0.3427
vn 0.8533 0.4785 0.2074
vn 0.5186 -0.8502 -0.0906
vn -0.2105 -0.9517 -0.2234
vn 0.2030 0.9145 0.3501
vn -0.1985 -0.9769 -0.0787
vn 0.1574 0.7157 0.6805
vn -0.5769 0.6154 0.5371
vn -0.9726 0.1088 0.2053
vn 0.9792 -0.2004 0.0304
vn 0.8581 -0.3721 0.3538
vn 0.5177 -0.8511 -0.0873
vn -0.5639 0.5033 0.6547
vn -0.2037 -0.9216 -0.3303
vn -0.9757 0.0799 0.2038
vn 0.7978 0.2931 0.5269
vn 0.9231 -0.3120 0.2246
vn -0.8455 -0.5266 -0.0890
vn 0.1133 0.5177 0.8480
vn 0.6953 0.1425 0.7045
vn -0.8534 -0.4861 -0.1885
vn -0.9753 0.0782 0.2067
vn -0.7611 0.2717 -0.5889
vn 0.6594 0.0514 -0.7500
vn 0.8245 -0.0041 0.5658
vn -0.6188 0.2435 0.7468
vn -0.7418 0.2750 -0.6116
vn -0.1416 0.0265 -0.9896
vn 0.1807 0.1146 0.9768
vn -0.1107 0.1874 -0.9760
vn 0.2717 0.4901 0.8283
vn 0.8523 0.2206 0.4743
vn 0.9891 -0.0278 -0.1445
vn -0.9495 0.2898 0.1206
vn -0.7739 0.6332 0.0080
vn -0.7403 0.2784 -0.6120
vn 0.8388 0.3650 0.4039
vn -0.1756 -0.0922 -0.9801
vn 0.9851 -0.0212 -0.1710
vn -0.4965 0.6060 0.6215
vn -0.8627 0.5032 0.0504
vn 0.6394 -0.1048 -0.7617
vn 0.3051 0.6870 0.6594
vn -0.3726 0.7908 0.4856
vn 0.6235 -0.2219 -0.7497
vn 0.9850 -0.0177 -0.1717
vn -0.5445 -0.8335 -0.0937
vn 0.8285 -0.5578 0.0492
vn 0.5583 0.7556 0.3427
vn -0.8533 0.4785 0.2074
vn -0.5186 -0.8502 -0.0906
vn 0.2105 -0.9517 -0.2234
vn -0.2030 0.9145 0.3501
vn 0.1985 -0.9769 -0.0787
vn -0.1574 0.7157 0.6805
vn 0.5769 0.6154 0.5371
vn 0.9726 0.1088 0.2053
vn -0.9792 -0.2004 0.0304
vn -0.8581 -0.3721 0.3538
vn -0.5177 -0.8511 -0.0873
vn 0.5639 0.5033 0.6547
vn 0.2036 -0.9216 -0.3303
vn 0.9757 0.0799 0.2038
vn -0.7978 0.2931 0.5269
vn -0.9231 -0.3120 0.2246
vn 0.8455 -0.5266 -0.0890
vn -0.1133 0.5177 0.8480
vn -0.6953 0.1425 0.7045
vn 0.8534 -0.4860 -0.1885
vn 0.9753 0.0782 0.2067
vn 0.7611 0.2717 -0.5889
vn -0.6594 0.0514 -0.7500
vn -0.8245 -0.0041 0.5658
vn 0.6188 0.2435 0.7468
vn 0.7418 0.2750 -0.6116
vn 0.1416 0.0265 -0.9896
vn -0.1807 0.1146 0.9768
vn 0.1107 0.1874 -0.9760
vn -0.2717 0.4901 0.8283
vn -0.8523 0.2206 0.4743
vn -0.9891 -0.0278 -0.1445
vn 0.9495 0.2898 0.1206
vn 0.7739 0.6332 0.0080
vn 0.7403 0.2784 -0.6120
vn -0.8388 0.3650 0.4039
vn 0.1756 -0.0922 -0.9801
vn -0.9851 -0.0212 -0.1710
vn 0.4965 0.6060 0.6215
vn 0.8627 0.5032 0.0504
vn -0.6394 -0.1048 -0.7617
vn -0.3051 0.6870 0.6594
vn 0.3726 0.7908 0.4856
vn -0.6235 -0.2219 -0.7497
vn -0.9850 -0.0177 -0.1717
usemtl belph
s off
f 45/1/1 39/2/1 4/3/1 14/4/1
f 24/5/2 18/6/2 8/7/2 15/8/2
f 44/9/3 41/10/3 6/11/3 16/12/3
f 23/13/4 20/14/4 2/15/4 13/16/4
f 5/17/5 19/18/5 37/19/5
f 46/20/6 39/2/6 2/21/6 20/22/6
f 36/23/7 21/24/7 9/25/7 31/26/7
f 50/27/8 42/28/8 12/29/8 34/30/8
f 35/31/9 22/32/9 11/33/9 33/34/9
f 49/35/10 43/36/10 10/37/10 32/38/10
f 21/24/11 23/13/11 13/16/11 9/25/11
f 42/28/12 44/39/12 16/40/12 12/29/12
f 22/32/13 24/5/13 15/8/13 11/33/13
f 43/36/14 45/41/14 14/42/14 10/37/14
f 10/43/15 14/44/15 24/5/15 22/32/15
f 12/45/16 16/46/16 23/13/16 21/24/16
f 32/47/17 10/43/17 22/32/17 35/31/17
f 34/48/18 12/45/18 21/24/18 36/23/18
f 41/10/19 46/20/19 20/22/19 6/11/19
f 7/49/20 40/50/20 5/17/20 37/19/20
f 16/46/21 6/51/21 20/14/21 23/13/21
f 14/44/22 4/52/22 18/6/22 24/5/22
f 5/17/23 27/53/23 30/54/23 19/18/23
f 3/55/24 25/56/24 29/57/24 17/58/24
f 38/59/25 47/60/25 25/61/25 3/62/25
f 17/58/26 29/57/26 26/63/26 7/64/26
f 40/65/27 48/66/27 27/67/27 5/68/27
f 19/18/28 30/54/28 28/69/28 1/70/28
f 27/53/29 34/48/29 36/23/29 30/54/29
f 25/56/30 32/47/30 35/31/30 29/57/30
f 47/60/31 49/35/31 32/38/31 25/61/31
f 29/57/32 35/31/32 33/34/32 26/63/32
f 48/66/33 50/27/33 34/30/33 27/67/33
f 30/54/34 36/23/34 31/26/34 28/69/34
f 19/18/5 1/70/5 37/19/5
f 17/71/35 7/49/35 37/19/35
f 3/72/36 17/71/36 37/19/36
f 1/70/37 38/73/37 3/72/37 37/19/37
f 26/74/33 33/75/33 50/27/33 48/66/33
f 28/76/31 31/77/31 49/35/31 47/60/31
f 7/78/27 26/74/27 48/66/27 40/65/27
f 1/79/25 28/76/25 47/60/25 38/59/25
f 8/80/38 18/81/38 46/20/38 41/10/38
f 9/82/39 13/83/39 45/41/39 43/36/39
f 11/84/40 15/85/40 44/39/40 42/28/40
f 31/77/10 9/82/10 43/36/10 49/35/10
f 33/75/8 11/84/8 42/28/8 50/27/8
f 18/81/41 4/3/41 39/2/41 46/20/41
f 15/86/42 8/80/42 41/10/42 44/9/42
f 13/87/43 2/21/43 39/2/43 45/1/43
f 63/88/44 64/89/44 54/90/44 53/91/44
f 59/92/45 60/93/45 58/94/45 57/95/45
f 65/96/46 66/97/46 56/98/46 55/99/46
f 61/100/47 62/101/47 52/102/47 51/103/47
f 54/90/48 64/89/48 68/104/48 69/105/48
f 60/106/49 54/90/49 69/105/49 70/107/49
f 55/99/50 56/98/50 62/108/50 61/109/50
f 53/91/51 54/90/51 60/106/51 59/110/51
f 62/108/52 56/98/52 73/111/52 74/112/52
f 56/98/53 66/97/53 72/113/53 73/111/53
f 57/95/54 58/94/54 66/97/54 65/96/54
f 51/103/55 52/102/55 64/89/55 63/88/55
f 68/104/56 75/114/56 67/115/56
f 69/105/57 68/104/57 67/115/57
f 73/111/58 72/113/58 67/116/58
f 70/107/59 69/105/59 67/115/59
f 66/97/60 58/94/60 71/117/60 72/113/60
f 52/102/61 62/101/61 74/118/61 75/114/61
f 64/89/62 52/102/62 75/114/62 68/104/62
f 58/94/63 60/93/63 70/119/63 71/117/63
f 74/112/64 73/111/64 67/116/64
f 75/114/65 74/118/65 67/115/65
f 71/117/66 70/119/66 67/116/66
f 72/113/67 71/117/67 67/116/67
f 88/120/68 89/121/68 79/122/68 78/123/68
f 84/124/69 85/125/69 83/126/69 82/127/69
f 90/128/70 91/129/70 81/130/70 80/131/70
f 86/132/71 87/133/71 77/134/71 76/135/71
f 79/122/72 89/121/72 93/136/72 94/137/72
f 85/138/73 79/122/73 94/137/73 95/139/73
f 80/131/74 81/130/74 87/140/74 86/141/74
f 78/123/75 79/122/75 85/138/75 84/142/75
f 87/140/76 81/130/76 98/143/76 99/144/76
f 81/130/77 91/129/77 97/145/77 98/143/77
f 82/127/78 83/126/78 91/129/78 90/128/78
f 76/135/79 77/134/79 89/121/79 88/120/79
f 93/136/80 100/146/80 92/147/80
f 94/137/81 93/136/81 92/147/81
f 98/143/82 97/145/82 92/148/82
f 95/139/83 94/137/83 92/147/83
f 91/129/84 83/126/84 96/149/84 97/145/84
f 77/134/85 87/133/85 99/150/85 100/146/85
f 89/121/86 77/134/86 100/146/86 93/136/86
f 83/126/87 85/125/87 95/151/87 96/149/87
f 99/144/88 98/143/88 92/148/88
f 100/146/89 99/150/89 92/147/89
f 96/149/90 95/151/90 92/148/90
f 97/145/91 96/149/91 92/148/91
f 113/152/92 103/153/92 104/154/92 114/155/92
f 109/156/93 107/157/93 108/158/93 110/159/93
f 115/160/94 105/161/94 106/162/94 116/163/94
f 111/164/95 101/165/95 102/166/95 112/167/95
f 104/154/96 119/168/96 118/169/96 114/155/96
f 110/170/97 120/171/97 119/168/97 104/154/97
f 105/161/98 111/172/98 112/173/98 106/162/98
f 103/153/99 109/174/99 110/170/99 104/154/99
f 112/173/100 124/175/100 123/176/100 106/162/100
f 106/162/101 123/176/101 122/177/101 116/163/101
f 107/157/102 115/160/102 116/163/102 108/158/102
f 101/165/103 113/152/103 114/155/103 102/166/103
f 118/169/104 117/178/104 125/179/104
f 119/168/105 117/178/105 118/169/105
f 123/176/106 117/180/106 122/177/106
f 120/171/107 117/178/107 119/168/107
f 116/163/108 122/177/108 121/181/108 108/158/108
f 102/166/109 125/179/109 124/182/109 112/167/109
f 114/155/110 118/169/110 125/179/110 102/166/110
f 108/158/111 121/181/111 120/183/111 110/159/111
f 124/175/112 117/180/112 123/176/112
f 125/179/113 117/178/113 124/182/113
f 121/181/114 117/180/114 120/183/114
f 122/177/115 117/180/115 121/181/115
f 138/184/116 128/185/116 129/186/116 139/187/116
f 134/188/117 132/189/117 133/190/117 135/191/117
f 140/192/118 130/193/118 131/194/118 141/195/118
f 136/196/119 126/197/119 127/198/119 137/199/119
f 129/186/120 144/200/120 143/201/120 139/187/120
f 135/202/121 145/203/121 144/200/121 129/186/121
f 130/193/122 136/204/122 137/205/122 131/194/122
f 128/185/123 134/206/123 135/202/123 129/186/123
f 137/205/124 149/207/124 148/208/124 131/194/124
f 131/194/125 148/208/125 147/209/125 141/195/125
f 132/189/126 140/192/126 141/195/126 133/190/126
f 126/197/127 138/184/127 139/187/127 127/198/127
f 143/201/128 142/210/128 150/211/128
f 144/200/129 142/210/129 143/201/129
f 148/208/130 142/212/130 147/209/130
f 145/203/131 142/210/131 144/200/131
f 141/195/132 147/209/132 146/213/132 133/190/132
f 127/198/133 150/211/133 149/214/133 137/199/133
f 139/187/134 143/201/134 150/211/134 127/198/134
f 133/190/135 146/213/135 145/215/135 135/191/135
f 149/207/136 142/212/136 148/208/136
f 150/211/137 142/210/137 149/214/137
f 146/213/138 142/212/138 145/215/138
f 147/209/139 142/212/139 146/213/139
o ArmRightUpper
v -0.306962 1.897623 0.059130
v -0.306962 1.897623 -0.036126
v -0.404567 1.908383 0.059130
v -0.404567 1.908383 -0.036126
v -0.355764 1.903003 -0.063342
v -0.355764 1.903003 0.072738
v -0.294761 1.896278 0.004698
v -0.416767 1.909728 0.004698
v -0.353223 1.939605 -0.000000
v -0.273844 1.793162 0.101023
v -0.273844 1.793162 -0.072433
v -0.451578 1.812754 -0.072433
v -0.451578 1.812754 0.101023
v -0.362711 1.802958 0.125803
v -0.362711 1.802958 -0.121993
v -0.473794 1.815203 0.001905
v -0.251627 1.790713 0.001905
v -0.306703 1.326917 -0.091227
v -0.483474 1.346403 -0.091227
v -0.480833 1.384441 0.077973
v -0.392070 1.380131 0.102144
v -0.395843 1.325792 -0.139570
v -0.504439 1.365141 -0.018713
v -0.283474 1.340783 -0.018713
v -0.304062 1.364954 0.077973
v -0.289734 1.514529 0.122492
v -0.289734 1.514529 -0.091040
v -0.469646 1.673259 -0.091040
v -0.469646 1.673259 0.122492
v -0.379690 1.593894 0.152997
v -0.379690 1.593894 -0.152049
v -0.492135 1.693100 0.000474
v -0.267244 1.494687 0.000474
v -0.393957 1.316220 -0.018713
v -0.338395 1.463388 -0.075495
v -0.374954 1.425328 -0.204407
v -0.359206 1.366329 -0.056264
v -0.386456 1.362889 -0.175463
v -0.416063 1.492606 -0.064587
v -0.429321 1.445781 -0.196772
v -0.436874 1.395548 -0.045355
v -0.440824 1.383342 -0.167828
v -0.402499 1.360140 -0.046688
v -0.416105 1.359736 -0.165443
v -0.372769 1.498795 -0.074162
v -0.399672 1.448934 -0.206792
v -0.332157 1.408597 -0.068217
v -0.369055 1.389726 -0.191572
v -0.443111 1.450338 -0.052634
v -0.446723 1.418944 -0.180663
v -0.438463 1.326392 -0.292522
v -0.402701 1.361519 -0.250708
v -0.411898 1.347336 -0.242195
v -0.427567 1.345669 -0.236899
v -0.440631 1.358145 -0.238160
v -0.443748 1.376961 -0.244943
v -0.434552 1.391143 -0.253456
v -0.418883 1.392810 -0.258752
v -0.405819 1.380334 -0.257492
vt 0.740919 0.221523
vt 0.715168 0.207531
vt 0.697179 0.242614
vt 0.711585 0.252705
vt 0.680953 0.195948
vt 0.644902 0.192454
vt 0.647363 0.231977
vt 0.672640 0.235255
vt 0.139900 0.699564
vt 0.110229 0.679633
vt 0.096669 0.706232
vt 0.106187 0.722545
vt 0.082858 0.675813
vt 0.055575 0.676905
vt 0.066090 0.704752
vt 0.081514 0.703041
vt 0.080476 0.725169
vt 0.054905 0.720321
vt 0.101221 0.738958
vt 0.079434 0.749480
vt 0.058526 0.737189
vt 0.615996 0.195401
vt 0.630253 0.235417
vt 0.022440 0.693572
vt 0.049221 0.606185
vt 0.006632 0.600293
vt 0.651376 0.150759
vt 0.615996 0.150616
vt 0.735787 0.130003
vt 0.694105 0.141064
vt 0.115286 0.643756
vt 0.083596 0.624266
vt 0.159844 0.658210
vt 0.770056 0.126708
vt 0.756873 0.071572
vt 0.730260 0.083469
vt 0.707259 0.085740
vt 0.684092 0.077122
vt 0.161501 0.546587
vt 0.123432 0.555484
vt 0.083569 0.557396
vt 0.042556 0.557301
vt 0.663680 0.057284
vt 0.004532 0.546587
vt 0.712274 0.054706
vt 0.718822 0.004532
vt 0.673838 0.012901
vt 0.759966 0.025489
vt 0.867516 0.314019
vt 0.864532 0.330273
vt 0.905320 0.334969
vt 0.909309 0.324361
vt 0.863555 0.208983
vt 0.864532 0.225549
vt 0.905320 0.220853
vt 0.903808 0.209394
vt 0.867516 0.241803
vt 0.872701 0.257870
vt 0.915036 0.240959
vt 0.909309 0.231461
vt 0.880072 0.282443
vt 0.872701 0.297951
vt 0.915036 0.314863
vt 0.921898 0.305969
vt 0.929217 0.340421
vt 0.930758 0.334660
vt 0.903808 0.346428
vt 0.928677 0.346529
vt 0.880072 0.273379
vt 0.921898 0.249853
vt 0.863555 0.346839
vt 0.938225 0.230540
vt 0.933716 0.226318
vt 0.930758 0.221162
vt 0.948823 0.346839
vt 0.933716 0.329504
vt 0.948823 0.208983
vt 0.929217 0.215401
vt 0.938225 0.325282
vt 0.928677 0.209293
vn 0.8928 0.3715 -0.2546
vn -0.3840 0.4867 -0.7847
vn -0.8414 0.5017 0.2010
vn 0.2861 0.4334 0.8546
vn 0.4157 0.8629 0.2874
vn -0.2258 0.9287 0.2943
vn -0.1885 0.4704 0.8621
vn 0.4769 0.4196 -0.7723
vn -0.2936 0.8891 -0.3511
vn 0.4710 0.8132 -0.3419
vn -0.8228 0.5041 -0.2625
vn 0.9098 0.3666 0.1949
vn 0.9782 -0.0466 0.2024
vn -0.9488 0.1532 -0.2763
vn 0.5422 0.0472 -0.8389
vn -0.2197 0.1565 0.9629
vn 0.3272 0.0720 0.9422
vn -0.9659 0.1506 0.2105
vn -0.4565 0.1679 -0.8737
vn 0.9631 -0.0435 -0.2655
vn 0.9596 -0.0780 -0.2703
vn -0.5208 0.0086 -0.8536
vn -0.9784 0.0160 0.2062
vn 0.1539 -0.2614 0.9529
vn -0.3558 -0.1581 0.9211
vn 0.5011 -0.0597 -0.8634
vn -0.9629 0.0463 -0.2660
vn 0.9652 -0.1431 0.2189
vn -0.2814 -0.8848 0.3714
vn -0.3285 -0.9444 0.0124
vn 0.1263 -0.9920 0.0056
vn 0.0898 -0.9204 0.3804
vn 0.7999 -0.5788 -0.1583
vn -0.7047 -0.7040 0.0881
vn -0.8546 0.5100 -0.0979
vn 0.6574 0.6516 -0.3785
vn 0.7825 -0.6022 -0.1580
vn 0.1596 -0.9731 0.1660
vn -0.2020 0.9295 -0.3087
vn 0.1256 -0.9921 -0.0055
vn -0.2940 0.7016 -0.6491
vn -0.8728 0.3892 -0.2946
vn -0.9912 -0.1217 0.0511
vn 0.9543 0.0631 -0.2921
vn 0.7919 -0.0867 -0.6044
vn 0.7811 -0.6033 -0.1612
vn -0.8560 0.3040 -0.4182
vn 0.1966 -0.9377 0.2865
vn -0.9881 -0.1459 0.0495
vn 0.5227 0.4759 -0.7073
vn 0.8748 -0.0294 -0.4837
vn -0.6818 -0.6892 0.2451
vn -0.3243 0.5029 -0.8012
vn 0.3914 0.3228 -0.8618
vn -0.6627 -0.6578 0.3578
vn -0.9881 -0.1470 0.0464
usemtl belph
s off
f 167/216/140 161/217/140 152/218/140 157/219/140
f 165/220/141 162/221/141 154/222/141 155/223/141
f 166/224/142 163/225/142 153/226/142 158/227/142
f 164/228/143 160/229/143 151/230/143 156/231/143
f 159/232/144 156/231/144 151/230/144 157/233/144
f 158/227/145 153/226/145 156/231/145 159/232/145
f 163/225/146 164/228/146 156/231/146 153/226/146
f 161/217/147 165/220/147 155/223/147 152/218/147
f 154/234/148 158/227/148 159/232/148 155/235/148
f 155/235/149 159/232/149 157/233/149 152/236/149
f 162/221/150 166/237/150 158/238/150 154/222/150
f 160/229/151 167/239/151 157/233/151 151/230/151
f 176/240/152 183/241/152 167/239/152 160/229/152
f 178/242/153 182/243/153 166/237/153 162/221/153
f 177/244/154 181/245/154 165/220/154 161/217/154
f 179/246/155 180/247/155 164/228/155 163/225/155
f 180/247/156 176/240/156 160/229/156 164/228/156
f 182/248/157 179/246/157 163/225/157 166/224/157
f 181/245/158 178/242/158 162/221/158 165/220/158
f 183/249/159 177/244/159 161/217/159 167/216/159
f 174/250/160 168/251/160 177/244/160 183/249/160
f 172/252/161 169/253/161 178/242/161 181/245/161
f 173/254/162 170/255/162 179/246/162 182/248/162
f 171/256/163 175/257/163 176/240/163 180/247/163
f 170/255/164 171/256/164 180/247/164 179/246/164
f 168/251/165 172/252/165 181/245/165 177/244/165
f 169/253/166 173/258/166 182/243/166 178/242/166
f 175/257/167 174/259/167 183/241/167 176/240/167
f 173/258/168 184/260/168 171/261/168 170/262/168
f 172/252/169 184/260/169 173/258/169 169/253/169
f 168/251/170 174/250/170 184/260/170 172/252/170
f 171/261/171 184/260/171 174/250/171 175/263/171
f 197/264/172 187/265/172 188/266/172 198/267/172
f 193/268/173 191/269/173 192/270/173 194/271/173
f 199/272/174 189/273/174 190/274/174 200/275/174
f 195/276/175 185/277/175 186/278/175 196/279/175
f 188/266/176 203/280/176 202/281/176 198/267/176
f 194/282/177 204/283/177 203/280/177 188/266/177
f 189/273/178 195/284/178 196/285/178 190/274/178
f 187/265/179 193/286/179 194/282/179 188/266/179
f 196/285/180 208/287/180 207/288/180 190/274/180
f 190/274/181 207/288/181 206/289/181 200/275/181
f 191/269/182 199/272/182 200/275/182 192/270/182
f 185/277/183 197/264/183 198/267/183 186/278/183
f 202/281/184 201/290/184 209/291/184
f 203/280/185 201/290/185 202/281/185
f 207/288/186 201/292/186 206/289/186
f 204/283/187 201/290/187 203/280/187
f 200/275/188 206/289/188 205/293/188 192/270/188
f 186/278/189 209/291/189 208/294/189 196/279/189
f 198/267/190 202/281/190 209/291/190 186/278/190
f 192/270/191 205/293/191 204/295/191 194/271/191
f 208/287/192 201/292/192 207/288/192
f 209/291/193 201/290/193 208/294/193
f 205/293/194 201/292/194 204/295/194
f 206/289/195 201/292/195 205/293/195
o ArmRightLower
v -0.343120 1.010005 0.233200
v -0.348813 0.928016 0.107494
v -0.490058 1.044019 0.224164
v -0.495751 0.962031 0.098458
v -0.423908 0.921598 0.067060
v -0.415776 1.038724 0.246640
v -0.328006 0.958902 0.162498
v -0.511678 1.001420 0.151202
v -0.306703 1.326917 -0.091227
v -0.483474 1.346403 -0.091227
v -0.480833 1.384441 0.077973
v -0.392070 1.380131 0.102144
v -0.395843 1.325792 -0.139570
v -0.504439 1.365141 -0.018713
v -0.283474 1.340783 -0.018713
v -0.304062 1.364954 0.077973
v -0.321118 1.188482 -0.038930
v -0.492601 1.145795 -0.007692
v -0.485974 1.241238 0.138642
v -0.399285 1.276216 0.143928
v -0.408753 1.139869 -0.065121
v -0.511196 1.181364 0.058928
v -0.296842 1.234722 0.019880
v -0.314491 1.283925 0.107404
v -0.367352 0.886375 0.196972
v -0.377924 0.906735 0.246377
v -0.427406 0.868004 0.135180
v -0.379938 0.873087 0.159908
v -0.484581 0.897703 0.196916
v -0.473722 0.882149 0.159863
v -0.424528 0.916074 0.258707
v -0.471707 0.915798 0.246332
v -0.425985 0.881011 0.201180
v -0.331819 1.421534 -0.045601
v -0.343433 1.414601 -0.081858
v -0.388003 1.414039 -0.106029
v -0.431819 1.424344 -0.081858
v -0.442301 1.433713 -0.045601
v -0.430498 1.443363 0.002742
v -0.386117 1.441208 0.014828
v -0.342112 1.433620 0.002742
v -0.387060 1.450155 -0.053511
vt 0.756088 0.465955
vt 0.754455 0.435435
vt 0.729615 0.434034
vt 0.723529 0.465366
vt 0.743098 0.738669
vt 0.730260 0.712146
vt 0.718043 0.714408
vt 0.719702 0.740529
vt 0.706611 0.424464
vt 0.691162 0.460213
vt 0.705436 0.713720
vt 0.696869 0.737350
vt 0.768522 0.575322
vt 0.741935 0.559435
vt 0.724763 0.594666
vt 0.744314 0.612959
vt 0.710796 0.540870
vt 0.676826 0.527421
vt 0.679777 0.584265
vt 0.703776 0.585280
vt 0.790276 0.788953
vt 0.754373 0.799739
vt 0.759683 0.850757
vt 0.797532 0.856257
vt 0.721106 0.813141
vt 0.685895 0.823199
vt 0.684314 0.851524
vt 0.721687 0.849721
vt 0.648181 0.522877
vt 0.652426 0.594435
vt 0.650784 0.819676
vt 0.648181 0.856257
vt 0.670584 0.722661
vt 0.667135 0.451555
vt 0.768256 0.723838
vt 0.781526 0.464179
vt 0.716823 0.696804
vt 0.739666 0.698989
vt 0.694481 0.701140
vt 0.696851 0.685520
vt 0.715987 0.673664
vt 0.735969 0.683821
vt 0.770907 0.430651
vt 0.692392 0.414428
vt 0.683774 0.607361
vt 0.690389 0.600982
vt 0.700765 0.599970
vt 0.732357 0.656359
vt 0.709942 0.627029
vt 0.695050 0.628304
vt 0.687676 0.664600
vt 0.709664 0.605106
vt 0.681507 0.621595
vt 0.697959 0.611579
vt 0.713091 0.613317
vt 0.648181 0.640856
vn 0.3681 -0.7411 -0.5615
vn -0.2692 0.1201 0.9556
vn -0.5514 -0.6191 -0.5591
vn 0.2303 0.0641 0.9710
vn 0.9470 -0.2008 -0.2507
vn -0.5344 -0.2935 -0.7927
vn -0.9692 0.1250 0.2122
vn 0.3268 0.3123 0.8920
vn -0.2177 0.3831 0.8977
vn 0.4465 -0.3581 -0.8200
vn -0.9662 -0.0647 -0.2495
vn 0.9745 -0.0440 0.2198
vn 0.9785 -0.0057 0.2062
vn -0.9710 -0.1069 -0.2137
vn 0.4662 -0.4758 -0.7458
vn -0.2265 0.3960 0.8899
vn 0.3255 0.3616 0.8737
vn -0.9687 0.1153 0.2198
vn -0.5410 -0.4105 -0.7340
vn 0.9485 -0.2246 -0.2235
vn -0.2062 -0.8649 0.4576
vn 0.0392 -0.8858 0.4624
vn 0.0489 -0.9694 0.2407
vn -0.2304 -0.9430 0.2402
vn -0.9452 -0.0936 0.3129
vn 0.8914 -0.2793 0.3568
vn 0.8547 -0.5153 -0.0627
vn -0.9467 -0.3081 -0.0939
vn -0.7572 0.5451 -0.3598
vn -0.3852 0.3576 -0.8507
vn 0.2881 0.7754 0.5620
vn 0.4548 0.2808 -0.8452
vn -0.1424 0.9898 0.0096
vn 0.3428 0.9394 0.0022
vn 0.3723 0.8133 -0.4471
vn -0.2036 0.8623 -0.4637
vn -0.1139 0.8177 0.5642
vn -0.7319 0.6801 0.0429
vn 0.8509 0.3936 -0.3478
vn 0.8496 0.5251 0.0496
usemtl belph
s off
f 211/296/196 237/297/196 236/298/196 214/299/196
f 212/300/197 241/301/197 240/302/197 215/303/197
f 214/299/198 236/298/198 239/304/198 213/305/198
f 215/303/199 240/302/199 235/306/199 210/307/199
f 232/308/200 226/309/200 218/310/200 224/311/200
f 230/312/201 227/313/201 219/314/201 222/315/201
f 231/316/202 228/317/202 220/318/202 223/319/202
f 229/320/203 233/321/203 225/322/203 221/323/203
f 228/317/204 229/320/204 221/323/204 220/318/204
f 226/309/205 230/312/205 222/315/205 218/310/205
f 227/313/206 231/324/206 223/325/206 219/314/206
f 233/321/207 232/326/207 224/327/207 225/322/207
f 210/307/208 216/328/208 232/326/208 233/321/208
f 213/305/209 217/329/209 231/324/209 227/313/209
f 211/296/210 214/299/210 230/312/210 226/309/210
f 212/300/211 215/303/211 229/320/211 228/317/211
f 215/303/212 210/307/212 233/321/212 229/320/212
f 217/330/213 212/300/213 228/317/213 231/316/213
f 214/299/214 213/305/214 227/313/214 230/312/214
f 216/331/215 211/296/215 226/309/215 232/308/215
f 242/332/216 240/302/216 241/301/216 238/333/216
f 234/334/217 235/306/217 240/302/217 242/332/217
f 237/335/218 234/334/218 242/332/218 236/336/218
f 236/336/219 242/332/219 238/333/219 239/337/219
f 217/330/220 238/333/220 241/301/220 212/300/220
f 210/307/221 235/306/221 234/334/221 216/328/221
f 216/331/222 234/338/222 237/297/222 211/296/222
f 213/305/223 239/304/223 238/339/223 217/329/223
f 223/325/224 247/340/224 246/341/224 219/314/224
f 219/314/225 246/341/225 245/342/225 222/315/225
f 225/343/226 250/344/226 249/345/226 221/346/226
f 222/315/227 245/342/227 244/347/227 218/310/227
f 247/340/228 248/348/228 249/345/228 251/349/228
f 249/345/229 250/344/229 243/350/229 251/349/229
f 244/347/230 245/342/230 251/349/230 243/350/230
f 245/342/231 246/341/231 247/340/231 251/349/231
f 221/346/232 249/345/232 248/348/232 220/351/232
f 220/351/233 248/348/233 247/340/233 223/325/233
f 218/310/234 244/347/234 243/350/234 224/311/234
f 224/311/235 243/350/235 250/344/235 225/343/235
o LegRight
v -0.229185 -0.015398 -0.126061
v -0.255312 1.133250 -0.126061
v -0.229185 -0.015398 0.161939
v -0.255312 1.133250 0.161939
v -0.094815 -0.015398 -0.126061
v -0.068688 1.133250 -0.126061
v -0.094815 -0.015398 0.161939
v -0.068688 1.133250 0.161939
v -0.162000 -0.015398 0.197939
v -0.162000 1.133250 0.197939
v -0.162000 -0.015398 -0.162061
v -0.162000 1.133250 -0.162061
v -0.245981 -0.015398 -0.014095
v -0.278640 1.133250 -0.014095
v -0.078019 -0.015398 -0.014095
v -0.045360 1.133250 -0.014095
v -0.162000 -0.015398 -0.014095
v -0.255312 0.579438 -0.126061
v -0.255312 0.579438 0.161939
v -0.068688 0.579438 0.161939
v -0.068688 0.579438 -0.126061
v -0.162000 0.579438 -0.162061
v -0.162000 0.579438 0.197939
v -0.045360 0.579438 -0.014095
v -0.278640 0.579438 -0.014095
v -0.245981 0.491668 0.144660
v -0.078019 0.491668 0.144660
v -0.078019 0.440981 -0.110603
v -0.162000 0.434645 -0.142510
v -0.162000 0.498003 0.176568
v -0.057024 0.460687 -0.011364
v -0.266976 0.460687 -0.011364
v -0.245981 0.440981 -0.110602
v -0.264643 0.789289 -0.123438
v -0.264643 0.759521 0.192257
v -0.059357 0.759521 0.192257
v -0.059357 0.789289 -0.123438
v -0.162000 0.793010 -0.162900
v -0.162000 0.755800 0.231719
v -0.033696 0.777716 -0.000705
v -0.290304 0.777716 -0.000705
v -0.235054 0.114705 0.138903
v -0.088946 0.114705 0.138903
v -0.088946 0.172638 -0.105452
v -0.162000 0.179880 -0.135996
v -0.162000 0.080436 0.193447
v -0.070682 0.150115 -0.010454
v -0.253318 0.150115 -0.010454
v -0.235054 0.172638 -0.105452
v -0.227987 0.276819 -0.102472
v -0.227987 0.271056 0.097087
v -0.096013 0.271056 0.097087
v -0.096013 0.276819 -0.102472
v -0.162000 0.277540 -0.127417
v -0.162000 0.270335 0.122032
v -0.079517 0.274578 -0.024889
v -0.244484 0.274578 -0.024889
v -0.231984 1.199560 -0.005504
v -0.217987 1.209926 0.099715
v -0.162000 1.212046 0.121232
v -0.106013 1.209926 0.099715
v -0.092016 1.199560 -0.005504
v -0.106013 1.192966 -0.072428
v -0.162000 1.190846 -0.093946
v -0.217987 1.192966 -0.072428
v -0.162000 1.231961 -0.000961
v -0.207802 0.771232 0.178614
v -0.198934 0.729703 0.282012
v -0.172290 0.694136 0.165694
v -0.174355 0.681944 0.260924
v -0.155249 0.821890 0.191414
v -0.162147 0.765163 0.290972
v -0.119737 0.744793 0.178494
v -0.137568 0.717404 0.269884
v -0.138404 0.702944 0.169325
v -0.150694 0.689440 0.260886
v -0.189136 0.813082 0.187783
v -0.185808 0.757667 0.291011
v -0.201308 0.721829 0.169411
v -0.194527 0.698225 0.269548
v -0.126232 0.794197 0.187697
v -0.141974 0.748882 0.282348
v -0.152486 0.648124 0.359510
v -0.176484 0.674673 0.320828
v -0.165822 0.666069 0.316270
v -0.153318 0.670031 0.316250
v -0.146381 0.684810 0.321006
v -0.148710 0.701445 0.327593
v -0.159371 0.710050 0.332150
v -0.171875 0.706088 0.332171
v -0.178813 0.691309 0.327415
vt 0.228160 0.727613
vt 0.170565 0.720486
vt 0.175934 0.803617
vt 0.228286 0.803740
vt 0.818370 0.194291
vt 0.782266 0.197034
vt 0.794522 0.277686
vt 0.823861 0.269706
vt 0.844837 0.851862
vt 0.806842 0.854057
vt 0.806596 0.929965
vt 0.839857 0.927826
vt 0.321714 0.729319
vt 0.285857 0.728654
vt 0.290092 0.804676
vt 0.321713 0.800207
vt 0.430182 0.916395
vt 0.474124 0.921054
vt 0.465783 0.897752
vt 0.433120 0.888684
vt 0.321713 0.823708
vt 0.342162 0.827724
vt 0.353334 0.804676
vt 0.821128 0.949686
vt 0.841795 0.948409
vt 0.427244 0.944106
vt 0.461083 0.942089
vt 0.357570 0.728654
vt 0.854491 0.191776
vt 0.854046 0.273352
vt 0.375554 0.933022
vt 0.367214 0.909720
vt 0.225040 0.824158
vt 0.245583 0.826751
vt 0.261343 0.807997
vt 0.873517 0.953034
vt 0.892110 0.931040
vt 0.380255 0.888684
vt 0.902769 0.848421
vt 0.265938 0.732227
vt 0.266198 0.654097
vt 0.235509 0.657625
vt 0.234753 0.684217
vt 0.269183 0.685298
vt 0.889613 0.787937
vt 0.841966 0.781547
vt 0.841024 0.808133
vt 0.894418 0.807903
vt 0.844049 0.129184
vt 0.814071 0.135235
vt 0.815496 0.154816
vt 0.848584 0.149641
vt 0.351749 0.650683
vt 0.321714 0.650443
vt 0.321714 0.682837
vt 0.354271 0.682184
vt 0.291679 0.650683
vt 0.289157 0.682184
vt 0.811564 0.776069
vt 0.806596 0.807017
vt 0.783532 0.133590
vt 0.782008 0.154488
vt 0.187551 0.660964
vt 0.181483 0.680583
vt 0.241971 0.615260
vt 0.204475 0.612031
vt 0.809748 0.075862
vt 0.783610 0.078396
vt 0.838218 0.738856
vt 0.813811 0.738916
vt 0.321714 0.613964
vt 0.297878 0.613865
vt 0.345549 0.613866
vt 0.835978 0.074583
vt 0.875843 0.738024
vt 0.266325 0.616876
vt 0.276793 0.552270
vt 0.242767 0.550309
vt 0.239247 0.586951
vt 0.267974 0.593621
vt 0.894894 0.673664
vt 0.841565 0.673987
vt 0.842742 0.710778
vt 0.887961 0.702737
vt 0.830261 0.004532
vt 0.804555 0.004532
vt 0.806070 0.025347
vt 0.834328 0.035179
vt 0.346516 0.548386
vt 0.321714 0.546587
vt 0.321714 0.591267
vt 0.348195 0.590727
vt 0.296911 0.548386
vt 0.295232 0.590727
vt 0.807483 0.673774
vt 0.813647 0.715603
vt 0.779120 0.008255
vt 0.779535 0.039168
vt 0.189567 0.546587
vt 0.194632 0.576042
vt 0.828133 0.328381
vt 0.830121 0.355684
vt 0.847589 0.348125
vt 0.850873 0.328548
vt 0.805657 0.331840
vt 0.811742 0.350735
vt 0.808381 0.301434
vt 0.825710 0.295099
vt 0.843774 0.298857
vt 0.193087 0.826751
vt 0.301265 0.827724
vt 0.630295 0.770511
vt 0.632384 0.759133
vt 0.603833 0.755846
vt 0.601040 0.763272
vt 0.633068 0.846756
vt 0.632384 0.835159
vt 0.603833 0.838446
vt 0.604890 0.846468
vt 0.630295 0.823782
vt 0.626666 0.812534
vt 0.597031 0.824372
vt 0.601040 0.831021
vt 0.621506 0.792615
vt 0.626666 0.781758
vt 0.597031 0.769920
vt 0.592228 0.776146
vt 0.587104 0.752030
vt 0.586026 0.756063
vt 0.604890 0.747825
vt 0.587482 0.747754
vt 0.621506 0.801678
vt 0.592228 0.818147
vt 0.633068 0.747537
vt 0.580799 0.831666
vt 0.583955 0.834621
vt 0.586026 0.838230
vt 0.573380 0.747537
vt 0.583955 0.759672
vt 0.573380 0.846756
vt 0.587104 0.842263
vt 0.580799 0.762627
vt 0.587482 0.846538
vn -0.9904 0.0365 0.1333
vn 0.3567 0.0838 0.9304
vn 0.9788 0.0247 -0.2031
vn -0.3594 0.0025 -0.9332
vn 0.0000 -1.0000 -0.0000
vn 0.2347 0.7349 -0.6362
vn 0.7737 0.6063 -0.1838
vn 0.3594 0.0025 -0.9332
vn -0.3567 0.0838 0.9304
vn -0.7737 0.6063 -0.1838
vn 0.8431 0.5298 0.0924
vn 0.9904 0.0365 0.1333
vn -0.9788 0.0247 -0.2031
vn -0.9761 -0.0935 -0.1961
vn 0.9838 -0.1100 0.1416
vn -0.3412 -0.2272 0.9121
vn 0.3588 -0.1261 -0.9249
vn -0.3588 -0.1261 -0.9249
vn 0.9761 -0.0935 -0.1961
vn 0.3412 -0.2272 0.9121
vn -0.9838 -0.1100 0.1416
vn -0.9823 -0.1195 0.1443
vn 0.3384 -0.2219 0.9145
vn 0.9745 -0.1096 -0.1958
vn -0.3560 -0.0872 -0.9304
vn 0.3560 -0.0872 -0.9304
vn -0.3384 -0.2219 0.9145
vn 0.9823 -0.1195 0.1443
vn -0.9745 -0.1096 -0.1958
vn -0.9776 -0.0422 -0.2061
vn 0.9893 -0.0697 0.1279
vn -0.3567 -0.1744 0.9178
vn 0.3593 -0.0040 -0.9332
vn -0.3593 -0.0040 -0.9332
vn 0.9776 -0.0422 -0.2061
vn 0.3567 -0.1744 0.9178
vn -0.9893 -0.0697 0.1279
vn -0.9852 -0.0252 -0.1696
vn 0.9940 -0.0376 0.1030
vn -0.5247 0.0895 0.8466
vn 0.4308 0.1026 -0.8966
vn -0.4308 0.1026 -0.8966
vn 0.9852 -0.0252 -0.1696
vn 0.5247 0.0895 0.8466
vn -0.9940 -0.0376 0.1030
vn -0.9802 0.0587 -0.1890
vn 0.9868 0.0836 0.1384
vn -0.4190 0.2899 0.8605
vn 0.3731 0.0661 -0.9254
vn -0.3731 0.0661 -0.9254
vn 0.9802 0.0587 -0.1890
vn 0.4190 0.2899 0.8605
vn -0.9868 0.0836 0.1384
vn -0.2608 0.9186 -0.2969
vn 0.2608 0.9186 -0.2969
vn 0.2749 0.9598 0.0572
vn -0.2749 0.9598 0.0572
vn -0.2731 0.6766 0.6838
vn -0.8431 0.5298 0.0924
vn -0.2347 0.7349 -0.6362
vn 0.2731 0.6766 0.6838
vn -0.6780 -0.7257 -0.1166
vn 0.9034 -0.4254 0.0537
vn 0.6634 0.6278 0.4072
vn -0.9080 0.3561 0.2207
vn -0.6530 -0.7487 -0.1141
vn 0.2872 -0.9081 -0.3047
vn -0.2683 0.8450 0.4626
vn 0.2773 -0.9545 -0.1100
vn -0.1832 0.5825 0.7919
vn 0.6424 0.4792 0.5981
vn 0.9756 0.0763 0.2059
vn -0.9894 -0.1416 0.0308
vn -0.8902 -0.2699 0.3670
vn -0.6523 -0.7499 -0.1100
vn 0.6044 0.3772 0.7017
vn 0.2707 -0.8567 -0.4391
vn 0.9773 0.0560 0.2042
vn -0.8159 0.2096 0.5388
vn -0.9470 -0.2238 0.2304
vn 0.9126 -0.3974 -0.0961
vn -0.1220 0.3897 0.9128
vn -0.6989 0.1002 0.7081
vn 0.9100 -0.3625 -0.2011
vn 0.9768 0.0548 0.2071
usemtl belph
s off
f 292/352/236 286/353/236 255/354/236 265/355/236
f 290/356/237 287/357/237 259/358/237 261/359/237
f 291/360/238 288/361/238 257/362/238 267/363/238
f 289/364/239 285/365/239 253/366/239 263/367/239
f 268/368/240 262/369/240 256/370/240 266/371/240
f 263/367/241 315/372/241 314/373/241 257/374/241
f 257/362/242 314/375/242 313/376/242 267/363/242
f 264/377/240 252/378/240 262/369/240 268/368/240
f 288/379/243 289/364/243 263/367/243 257/374/243
f 286/380/244 290/356/244 261/359/244 255/381/244
f 254/382/240 264/377/240 268/368/240 260/383/240
f 265/355/245 309/384/245 316/385/245 253/386/245
f 267/363/246 313/376/246 312/387/246 259/388/246
f 260/383/240 268/368/240 266/371/240 258/389/240
f 287/390/247 291/360/247 267/363/247 259/388/247
f 285/391/248 292/352/248 265/355/248 253/386/248
f 284/392/249 283/393/249 276/394/249 269/395/249
f 278/396/250 282/397/250 275/398/250 271/399/250
f 277/400/251 281/401/251 274/402/251 270/403/251
f 279/404/252 280/405/252 273/406/252 272/407/252
f 280/405/253 284/408/253 269/409/253 273/406/253
f 282/397/254 279/410/254 272/411/254 275/398/254
f 281/401/255 278/412/255 271/413/255 274/402/255
f 283/393/256 277/414/256 270/415/256 276/394/256
f 308/416/257 302/417/257 277/414/257 283/393/257
f 306/418/258 303/419/258 278/412/258 281/401/258
f 307/420/259 304/421/259 279/410/259 282/397/259
f 305/422/260 301/423/260 284/408/260 280/405/260
f 304/424/261 305/422/261 280/405/261 279/404/261
f 302/425/262 306/418/262 281/401/262 277/400/262
f 303/426/263 307/420/263 282/397/263 278/396/263
f 301/427/264 308/416/264 283/393/264 284/392/264
f 269/395/265 276/394/265 292/352/265 285/391/265
f 271/399/266 275/398/266 291/360/266 287/390/266
f 270/403/267 274/402/267 290/356/267 286/380/267
f 272/407/268 273/406/268 289/364/268 288/379/268
f 273/406/269 269/409/269 285/365/269 289/364/269
f 275/398/270 272/411/270 288/361/270 291/360/270
f 274/402/271 271/413/271 287/357/271 290/356/271
f 276/394/272 270/415/272 286/353/272 292/352/272
f 252/428/273 264/429/273 299/430/273 300/431/273
f 258/432/274 266/433/274 298/434/274 294/435/274
f 254/436/275 260/437/275 297/438/275 293/439/275
f 256/440/276 262/441/276 296/442/276 295/443/276
f 262/441/277 252/444/277 300/445/277 296/442/277
f 266/433/278 256/446/278 295/447/278 298/434/278
f 260/437/279 258/448/279 294/449/279 297/438/279
f 264/429/280 254/450/280 293/451/280 299/430/280
f 300/431/281 299/430/281 308/416/281 301/427/281
f 294/435/282 298/434/282 307/420/282 303/426/282
f 293/439/283 297/438/283 306/418/283 302/425/283
f 295/443/284 296/442/284 305/422/284 304/424/284
f 296/442/285 300/445/285 301/423/285 305/422/285
f 298/434/286 295/447/286 304/421/286 307/420/286
f 297/438/287 294/449/287 303/419/287 306/418/287
f 299/430/288 293/451/288 302/417/288 308/416/288
f 317/452/289 315/453/289 316/454/289 309/455/289
f 313/456/290 314/457/290 315/453/290 317/452/290
f 312/458/291 313/456/291 317/452/291 311/459/291
f 311/459/292 317/452/292 309/455/292 310/460/292
f 261/359/293 311/459/293 310/460/293 255/381/293
f 255/354/294 310/461/294 309/384/294 265/355/294
f 253/366/295 316/462/295 315/372/295 263/367/295
f 259/358/296 312/458/296 311/459/296 261/359/296
f 330/463/297 320/464/297 321/465/297 331/466/297
f 326/467/298 324/468/298 325/469/298 327/470/298
f 332/471/299 322/472/299 323/473/299 333/474/299
f 328/475/300 318/476/300 319/477/300 329/478/300
f 321/465/301 336/479/301 335/480/301 331/466/301
f 327/481/302 337/482/302 336/479/302 321/465/302
f 322/472/303 328/483/303 329/484/303 323/473/303
f 320/464/304 326/485/304 327/481/304 321/465/304
f 329/484/305 341/486/305 340/487/305 323/473/305
f 323/473/306 340/487/306 339/488/306 333/474/306
f 324/468/307 332/471/307 333/474/307 325/469/307
f 318/476/308 330/463/308 331/466/308 319/477/308
f 335/480/309 334/489/309 342/490/309
f 336/479/310 334/489/310 335/480/310
f 340/487/311 334/491/311 339/488/311
f 337/482/312 334/489/312 336/479/312
f 333/474/313 339/488/313 338/492/313 325/469/313
f 319/477/314 342/490/314 341/493/314 329/478/314
f 331/466/315 335/480/315 342/490/315 319/477/315
f 325/469/316 338/492/316 337/494/316 327/470/316
f 341/486/317 334/491/317 340/487/317
f 342/490/318 334/489/318 341/493/318
f 338/492/319 334/491/319 337/494/319
f 339/488/320 334/491/320 338/492/320
o Head
v -0.084346 1.881690 0.228937
v -0.103436 2.335290 0.251588
v -0.084346 1.881690 0.041502
v -0.103436 2.335290 0.021730
v 0.084346 1.881690 0.228937
v 0.103436 2.335290 0.251588
v 0.084346 1.881690 0.041502
v 0.103436 2.335290 0.021730
v 0.000000 1.881690 0.032201
v 0.000000 2.353714 -0.000700
v 0.000000 1.881690 0.256841
v 0.000000 2.353714 0.298820
v -0.101088 1.881690 0.116066
v -0.134784 2.335290 0.111121
v 0.101088 1.881690 0.116066
v 0.134784 2.335290 0.111121
v 0.000000 2.375488 0.111121
v 0.000000 1.881690 0.116066
v -0.140576 2.288715 0.294294
v -0.140576 2.288715 -0.018098
v 0.140576 2.288715 -0.018098
v 0.140576 2.288715 0.294294
v 0.000000 2.288715 0.340800
v 0.000000 2.288715 -0.033600
v 0.168480 2.288715 0.106176
v -0.168480 2.288715 0.106176
v -0.157138 2.186257 -0.036017
v 0.157138 2.186257 -0.036017
v 0.157138 2.164483 0.313180
v 0.000000 2.142709 0.365165
v 0.000000 2.206356 -0.051573
v 0.188330 2.186257 0.102899
v -0.188330 2.186257 0.102899
v -0.157138 2.164483 0.313180
v -0.127237 1.968655 -0.003666
v 0.127237 1.968655 -0.003666
v 0.127237 1.968655 0.279083
v 0.000000 1.968655 0.321176
v 0.000000 1.968655 -0.017697
v 0.152493 1.968655 0.108816
v -0.152493 1.968655 0.108816
v -0.127237 1.968655 0.279083
v -0.127969 2.067239 0.279928
v -0.127969 2.077037 -0.004447
v 0.127969 2.077037 -0.004447
v 0.127969 2.067239 0.279928
v 0.000000 2.057441 0.322264
v 0.000000 2.086082 -0.017761
v 0.153370 2.077037 0.108682
v -0.153370 2.077037 0.108682
vt 0.535075 0.826093
vt 0.557875 0.824692
vt 0.564010 0.860895
vt 0.537638 0.873776
vt 0.929012 0.171305
vt 0.929012 0.199919
vt 0.884358 0.196690
vt 0.870035 0.172030
vt 0.082926 0.926564
vt 0.081449 0.949359
vt 0.026694 0.955616
vt 0.011665 0.929751
vt 0.857486 0.584986
vt 0.857486 0.614320
vt 0.810226 0.615701
vt 0.797744 0.589129
vt 0.351711 0.349259
vt 0.393435 0.353400
vt 0.382363 0.394643
vt 0.346521 0.401553
vt 0.669767 0.326954
vt 0.615996 0.306677
vt 0.647348 0.261768
vt 0.695128 0.261768
vt 0.723104 0.348347
vt 0.730345 0.294058
vt 0.309987 0.345118
vt 0.312736 0.387732
vt 0.917228 0.589128
vt 0.904746 0.615701
vt 0.987988 0.172030
vt 0.973665 0.196690
vt 0.319647 0.318105
vt 0.354803 0.318105
vt 0.698391 0.375050
vt 0.654534 0.366109
vt 0.616166 0.343061
vt 0.389274 0.325016
vt 0.130600 0.929288
vt 0.117631 0.955616
vt 0.538502 0.754843
vt 0.564316 0.769958
vt 0.487217 0.747537
vt 0.495093 0.826976
vt 0.136587 0.886990
vt 0.083944 0.886586
vt 0.994468 0.130307
vt 0.929012 0.138245
vt 0.924382 0.538498
vt 0.857486 0.529420
vt 0.790590 0.538499
vt 0.004532 0.878442
vt 0.863555 0.130307
vt 0.495321 0.879620
vt 0.452841 0.825604
vt 0.451424 0.873595
vt 0.929012 0.091477
vt 0.869937 0.086758
vt 0.082714 0.844329
vt 0.011015 0.838538
vt 0.857486 0.495669
vt 0.796145 0.497746
vt 0.918827 0.497746
vt 0.988086 0.086758
vt 0.130709 0.843073
vt 0.447291 0.753886
vt 0.367214 0.778543
vt 0.407365 0.760234
vt 0.410589 0.824233
vt 0.370371 0.821966
vt 0.108724 0.758789
vt 0.124831 0.799156
vt 0.081485 0.802073
vt 0.079353 0.761847
vt 0.964278 0.004532
vt 0.981704 0.043210
vt 0.929012 0.044710
vt 0.929012 0.005943
vt 0.895860 0.414428
vt 0.913271 0.456994
vt 0.857486 0.461917
vt 0.857486 0.419642
vt 0.801700 0.456994
vt 0.819111 0.414428
vt 0.017497 0.798633
vt 0.035941 0.758544
vt 0.876320 0.043210
vt 0.893746 0.004532
vt 0.407527 0.867569
vt 0.367214 0.851326
vn -0.7302 0.6526 -0.2025
vn 0.1678 0.5769 -0.7994
vn 0.7609 0.6342 0.1372
vn -0.3176 0.6381 0.7014
vn 0.0000 -1.0000 0.0000
vn -0.2545 0.9630 0.0882
vn 0.2545 0.9630 0.0882
vn 0.3176 0.6381 0.7014
vn -0.1678 0.5769 -0.7994
vn 0.2491 0.9579 -0.1425
vn -0.2491 0.9579 -0.1425
vn 0.7302 0.6526 -0.2025
vn -0.7609 0.6342 0.1372
vn -0.9739 0.1670 0.1536
vn 0.9575 0.1924 -0.2150
vn -0.1150 0.1993 -0.9732
vn 0.2984 0.1686 0.9394
vn -0.2984 0.1686 0.9394
vn 0.9739 0.1670 0.1536
vn 0.1150 0.1993 -0.9732
vn -0.9575 0.1924 -0.2150
vn -0.9282 -0.3081 -0.2084
vn 0.0682 -0.2814 -0.9572
vn 0.9443 -0.3085 0.1145
vn -0.3272 -0.4079 0.8524
vn 0.3272 -0.4079 0.8524
vn -0.0682 -0.2814 -0.9572
vn 0.9282 -0.3081 -0.2084
vn -0.9443 -0.3085 0.1145
vn -0.8585 -0.4968 0.1273
vn 0.8385 -0.5113 -0.1883
vn -0.0952 -0.4954 -0.8634
vn 0.2570 -0.5747 0.7769
vn -0.2570 -0.5747 0.7769
vn 0.8585 -0.4968 0.1273
vn 0.0952 -0.4954 -0.8634
vn -0.8385 -0.5113 -0.1883
vn -0.9892 -0.0082 0.1465
vn 0.9757 -0.0082 -0.2191
vn -0.1064 -0.0041 -0.9943
vn 0.3144 -0.0110 0.9492
vn -0.3144 -0.0110 0.9492
vn 0.9892 -0.0082 0.1465
vn 0.1064 -0.0041 -0.9943
vn -0.9757 -0.0082 -0.2191
usemtl belph
s off
f 368/495/321 356/496/321 346/497/321 362/498/321
f 366/499/322 352/500/322 350/501/322 363/502/322
f 367/503/323 358/504/323 348/505/323 364/506/323
f 365/507/324 354/508/324 344/509/324 361/510/324
f 360/511/325 357/512/325 347/513/325 353/514/325
f 359/515/326 356/516/326 344/517/326 354/518/326
f 358/519/327 359/515/327 354/518/327 348/520/327
f 355/521/325 360/511/325 353/514/325 343/522/325
f 364/523/328 348/524/328 354/508/328 365/507/328
f 362/525/329 346/526/329 352/500/329 366/499/329
f 345/527/325 351/528/325 360/511/325 355/521/325
f 350/529/330 352/530/330 359/515/330 358/519/330
f 352/530/331 346/531/331 356/516/331 359/515/331
f 351/528/325 349/532/325 357/512/325 360/511/325
f 363/533/332 350/534/332 358/504/332 367/503/332
f 361/535/333 344/536/333 356/496/333 368/495/333
f 376/537/334 361/535/334 368/495/334 375/538/334
f 370/539/335 363/533/335 367/503/335 374/540/335
f 369/541/336 362/525/336 366/499/336 373/542/336
f 371/543/337 364/523/337 365/507/337 372/544/337
f 372/544/338 365/507/338 361/510/338 376/545/338
f 374/540/339 367/503/339 364/506/339 371/546/339
f 373/542/340 366/499/340 363/502/340 370/547/340
f 375/538/341 368/495/341 362/498/341 369/548/341
f 392/549/342 375/538/342 369/548/342 386/550/342
f 390/551/343 373/542/343 370/547/343 387/552/343
f 391/553/344 374/540/344 371/546/344 388/554/344
f 389/555/345 372/544/345 376/545/345 385/556/345
f 388/557/346 371/543/346 372/544/346 389/555/346
f 386/558/347 369/541/347 373/542/347 390/551/347
f 387/559/348 370/539/348 374/540/348 391/553/348
f 385/560/349 376/537/349 375/538/349 392/549/349
f 343/561/350 384/562/350 383/563/350 355/564/350
f 349/565/351 378/566/351 382/567/351 357/568/351
f 345/569/352 377/570/352 381/571/352 351/572/352
f 347/573/353 379/574/353 380/575/353 353/576/353
f 353/576/354 380/575/354 384/577/354 343/578/354
f 357/568/355 382/567/355 379/579/355 347/580/355
f 351/572/356 381/571/356 378/581/356 349/582/356
f 355/564/357 383/563/357 377/583/357 345/584/357
f 384/562/358 385/560/358 392/549/358 383/563/358
f 378/566/359 387/559/359 391/553/359 382/567/359
f 377/570/360 386/558/360 390/551/360 381/571/360
f 379/574/361 388/557/361 389/555/361 380/575/361
f 380/575/362 389/555/362 385/556/362 384/577/362
f 382/567/363 391/553/363 388/554/363 379/579/363
f 381/571/364 390/551/364 387/552/364 378/581/364
f 383/563/365 392/549/365 386/550/365 377/583/365
o Mouth
v -0.108864 1.899565 0.302566
v -0.108864 1.982725 0.302566
v -0.087091 1.898157 0.086236
v -0.108864 1.981317 0.086236
v 0.108864 1.899565 0.302566
v 0.108864 1.982725 0.302566
v 0.087091 1.898157 0.086236
v 0.108864 1.981317 0.086236
v -0.000000 1.898157 0.052636
v -0.000000 1.981317 0.052636
v -0.000000 1.899565 0.336166
v -0.000000 1.982725 0.336166
v -0.108864 1.898157 0.177436
v -0.136080 1.981317 0.177436
v 0.108864 1.898157 0.177436
v 0.136080 1.981317 0.177436
v -0.000000 1.981317 0.177436
v -0.076205 1.845077 0.181435
v -0.076205 1.839704 0.248048
v 0.000000 1.850083 0.089206
v -0.060964 1.848774 0.112685
v 0.076205 1.845077 0.181435
v 0.060964 1.848774 0.112685
v 0.000000 1.838394 0.271527
v 0.076205 1.839704 0.248048
v 0.000000 1.829957 0.181435
vt 0.958495 0.708329
vt 0.959931 0.673664
vt 0.995468 0.678880
vt 0.993369 0.712934
vt 0.552773 0.350286
vt 0.552773 0.318105
vt 0.600189 0.320084
vt 0.589995 0.353044
vt 0.531818 0.917041
vt 0.531118 0.951729
vt 0.483188 0.947509
vt 0.485213 0.914659
vt 0.700436 0.937348
vt 0.699617 0.973953
vt 0.646147 0.970513
vt 0.648558 0.933032
vt 0.983551 0.735315
vt 0.957135 0.733254
vt 0.220784 0.892909
vt 0.166400 0.877803
vt 0.189780 0.835815
vt 0.236643 0.835815
vt 0.275167 0.908016
vt 0.276793 0.859985
vt 0.911833 0.707839
vt 0.932225 0.735120
vt 0.752479 0.932585
vt 0.754793 0.971888
vt 0.515552 0.353044
vt 0.505357 0.320084
vt 0.507246 0.888684
vt 0.531994 0.892080
vt 0.255179 0.937797
vt 0.208315 0.937797
vt 0.168165 0.913627
vt 0.552773 0.372677
vt 0.525430 0.376845
vt 0.566908 0.914590
vt 0.566908 0.948709
vt 0.911833 0.674926
vt 0.945463 0.776353
vt 0.945672 0.808335
vt 0.920538 0.807937
vt 0.911833 0.776087
vt 0.946178 0.744379
vt 0.921041 0.744379
vt 0.971961 0.751101
vt 0.980612 0.776632
vt 0.971558 0.802022
vt 0.558487 0.891648
vt 0.662013 0.894816
vt 0.700271 0.899803
vt 0.580117 0.376845
vt 0.738587 0.894419
vn -0.9289 -0.2736 -0.2495
vn 0.3241 -0.0424 -0.9451
vn 0.9810 -0.1605 0.1085
vn -0.2949 0.0000 0.9555
vn -0.8222 -0.5319 -0.2026
vn 0.0014 0.9999 -0.0100
vn -0.0014 0.9999 -0.0100
vn -0.8676 -0.4972 -0.0103
vn 0.2949 0.0000 0.9555
vn -0.3241 -0.0424 -0.9451
vn 0.8676 -0.4972 -0.0103
vn 0.0000 1.0000 0.0000
vn -0.2903 -0.5733 -0.7662
vn 0.9289 -0.2736 -0.2495
vn -0.9810 -0.1605 0.1085
vn 0.1101 -0.9937 0.0194
vn -0.1101 -0.9937 0.0194
vn -0.1255 -0.9796 -0.1568
vn 0.1255 -0.9796 -0.1568
vn 0.8222 -0.5319 -0.2026
vn -0.2109 -0.7141 0.6675
vn 0.2903 -0.5733 -0.7662
vn 0.2109 -0.7141 0.6675
usemtl belph_belph
s off
f 405/585/366 406/586/366 396/587/366 395/588/366
f 401/589/367 402/590/367 400/591/367 399/592/367
f 407/593/368 408/594/368 398/595/368 397/596/368
f 403/597/369 404/598/369 394/599/369 393/600/369
f 405/585/370 395/588/370 413/601/370 410/602/370
f 409/603/371 406/604/371 394/605/371 404/606/371
f 408/607/372 409/603/372 404/606/372 398/608/372
f 393/609/373 405/585/373 410/602/373 411/610/373
f 397/611/374 398/612/374 404/598/374 403/597/374
f 395/613/375 396/614/375 402/590/375 401/589/375
f 407/593/376 397/596/376 417/615/376 414/616/376
f 400/617/377 402/618/377 409/603/377 408/607/377
f 402/618/377 396/619/377 406/604/377 409/603/377
f 395/613/378 401/589/378 412/620/378 413/621/378
f 399/622/379 400/623/379 408/594/379 407/593/379
f 393/609/380 394/624/380 406/586/380 405/585/380
f 418/625/381 414/626/381 417/627/381 416/628/381
f 410/629/382 418/625/382 416/628/382 411/630/382
f 413/631/383 412/632/383 418/625/383 410/629/383
f 412/632/384 415/633/384 414/626/384 418/625/384
f 399/622/385 407/593/385 414/616/385 415/634/385
f 403/597/386 393/600/386 411/635/386 416/636/386
f 401/589/387 399/592/387 415/637/387 412/620/387
f 397/611/388 403/597/388 416/636/388 417/638/388
o LegLeft
v 0.229185 -0.015398 -0.126061
v 0.255312 1.133250 -0.126061
v 0.229185 -0.015398 0.161939
v 0.255312 1.133250 0.161939
v 0.094815 -0.015398 -0.126061
v 0.068688 1.133250 -0.126061
v 0.094815 -0.015398 0.161939
v 0.068688 1.133250 0.161939
v 0.162000 -0.015398 0.197939
v 0.162000 1.133250 0.197939
v 0.162000 -0.015398 -0.162061
v 0.162000 1.133250 -0.162061
v 0.245981 -0.015398 -0.014095
v 0.278640 1.133250 -0.014095
v 0.078019 -0.015398 -0.014095
v 0.045360 1.133250 -0.014095
v 0.162000 -0.015398 -0.014095
v 0.255312 0.579438 -0.126061
v 0.255312 0.579438 0.161939
v 0.068688 0.579438 0.161939
v 0.068688 0.579438 -0.126061
v 0.162000 0.579438 -0.162061
v 0.162000 0.579438 0.197939
v 0.045360 0.579438 -0.014095
v 0.278640 0.579438 -0.014095
v 0.245981 0.491668 0.144660
v 0.078019 0.491668 0.144660
v 0.078019 0.440981 -0.110603
v 0.162000 0.434645 -0.142510
v 0.162000 0.498003 0.176568
v 0.057024 0.460687 -0.011364
v 0.266976 0.460687 -0.011364
v 0.245981 0.440981 -0.110602
v 0.264643 0.789289 -0.123438
v 0.264643 0.759521 0.192257
v 0.059357 0.759521 0.192257
v 0.059357 0.789289 -0.123438
v 0.162000 0.793010 -0.162900
v 0.162000 0.755800 0.231719
v 0.033696 0.777716 -0.000705
v 0.290304 0.777716 -0.000705
v 0.235054 0.114705 0.138903
v 0.088946 0.114705 0.138903
v 0.088946 0.172638 -0.105452
v 0.162000 0.179880 -0.135996
v 0.162000 0.080436 0.193447
v 0.070682 0.150115 -0.010454
v 0.253318 0.150115 -0.010454
v 0.235054 0.172638 -0.105452
v 0.227987 0.276819 -0.102472
v 0.227987 0.271056 0.097087
v 0.096013 0.271056 0.097087
v 0.096013 0.276819 -0.102472
v 0.162000 0.277540 -0.127417
v 0.162000 0.270335 0.122032
v 0.079517 0.274578 -0.024889
v 0.244484 0.274578 -0.024889
v 0.231984 1.199560 -0.005504
v 0.217987 1.209926 0.099715
v 0.162000 1.212046 0.121232
v 0.106013 1.209926 0.099715
v 0.092016 1.199560 -0.005504
v 0.106013 1.192966 -0.072428
v 0.162000 1.190846 -0.093946
v 0.217987 1.192966 -0.072428
v 0.162000 1.231961 -0.000961
v 0.207802 0.771232 0.178614
v 0.198934 0.729703 0.282012
v 0.172290 0.694136 0.165694
v 0.174355 0.681944 0.260924
v 0.155249 0.821890 0.191414
v 0.162147 0.765163 0.290972
v 0.119737 0.744793 0.178494
v 0.137568 0.717404 0.269884
v 0.138404 0.702944 0.169325
v 0.150694 0.689440 0.260886
v 0.189136 0.813082 0.187783
v 0.185808 0.757667 0.291011
v 0.201308 0.721829 0.169411
v 0.194527 0.698225 0.269548
v 0.126232 0.794197 0.187697
v 0.141974 0.748882 0.282348
v 0.152486 0.648124 0.359510
v 0.176484 0.674673 0.320828
v 0.165822 0.666069 0.316270
v 0.153318 0.670031 0.316250
v 0.146381 0.684810 0.321006
v 0.148710 0.701445 0.327593
v 0.159371 0.710050 0.332150
v 0.171875 0.706088 0.332171
v 0.178813 0.691309 0.327415
vt 0.228160 0.727613
vt 0.228286 0.803740
vt 0.175934 0.803617
vt 0.170565 0.720486
vt 0.818370 0.194291
vt 0.823861 0.269706
vt 0.794522 0.277686
vt 0.782266 0.197034
vt 0.844837 0.851862
vt 0.839857 0.927826
vt 0.806596 0.929965
vt 0.806842 0.854057
vt 0.321714 0.729319
vt 0.321713 0.800207
vt 0.290092 0.804676
vt 0.285857 0.728654
vt 0.430182 0.916395
vt 0.433120 0.888684
vt 0.465783 0.897752
vt 0.474124 0.921054
vt 0.353334 0.804676
vt 0.342162 0.827724
vt 0.321713 0.823708
vt 0.841795 0.948409
vt 0.821128 0.949686
vt 0.427244 0.944106
vt 0.461083 0.942089
vt 0.357570 0.728654
vt 0.854491 0.191776
vt 0.854046 0.273352
vt 0.375554 0.933022
vt 0.367214 0.909720
vt 0.261343 0.807997
vt 0.245583 0.826751
vt 0.225040 0.824158
vt 0.892110 0.931040
vt 0.873517 0.953034
vt 0.380255 0.888684
vt 0.902769 0.848421
vt 0.265938 0.732227
vt 0.266198 0.654097
vt 0.269183 0.685298
vt 0.234753 0.684217
vt 0.235509 0.657625
vt 0.889613 0.787937
vt 0.894418 0.807903
vt 0.841024 0.808133
vt 0.841966 0.781547
vt 0.844049 0.129184
vt 0.848584 0.149641
vt 0.815496 0.154816
vt 0.814071 0.135235
vt 0.351749 0.650683
vt 0.354271 0.682184
vt 0.321714 0.682837
vt 0.321714 0.650443
vt 0.289157 0.682184
vt 0.291679 0.650683
vt 0.806596 0.807017
vt 0.811564 0.776069
vt 0.782008 0.154488
vt 0.783532 0.133590
vt 0.181483 0.680583
vt 0.187551 0.660964
vt 0.241971 0.615260
vt 0.204475 0.612031
vt 0.809748 0.075862
vt 0.783610 0.078396
vt 0.838218 0.738856
vt 0.813811 0.738916
vt 0.321714 0.613964
vt 0.297878 0.613865
vt 0.345549 0.613866
vt 0.835978 0.074583
vt 0.875843 0.738024
vt 0.266325 0.616876
vt 0.276793 0.552270
vt 0.267974 0.593621
vt 0.239247 0.586951
vt 0.242767 0.550309
vt 0.894894 0.673664
vt 0.887961 0.702737
vt 0.842742 0.710778
vt 0.841565 0.673987
vt 0.830261 0.004532
vt 0.834328 0.035179
vt 0.806070 0.025347
vt 0.804555 0.004532
vt 0.346516 0.548386
vt 0.348195 0.590727
vt 0.321714 0.591267
vt 0.321714 0.546587
vt 0.295232 0.590727
vt 0.296911 0.548386
vt 0.813647 0.715603
vt 0.807483 0.673774
vt 0.779535 0.039168
vt 0.779120 0.008255
vt 0.194632 0.576042
vt 0.189567 0.546587
vt 0.828133 0.328381
vt 0.850873 0.328548
vt 0.847589 0.348125
vt 0.830121 0.355684
vt 0.805657 0.331840
vt 0.811742 0.350735
vt 0.808381 0.301434
vt 0.825710 0.295099
vt 0.843774 0.298857
vt 0.193087 0.826751
vt 0.301265 0.827724
vt 0.630295 0.770511
vt 0.601040 0.763272
vt 0.603833 0.755846
vt 0.632384 0.759133
vt 0.633068 0.846756
vt 0.604890 0.846468
vt 0.603833 0.838446
vt 0.632384 0.835159
vt 0.630295 0.823782
vt 0.601040 0.831021
vt 0.597031 0.824372
vt 0.626666 0.812534
vt 0.621506 0.792615
vt 0.592228 0.776146
vt 0.597031 0.769920
vt 0.626666 0.781758
vt 0.586026 0.756063
vt 0.587104 0.752030
vt 0.604890 0.747825
vt 0.587482 0.747754
vt 0.592228 0.818147
vt 0.621506 0.801678
vt 0.633068 0.747537
vt 0.583955 0.834621
vt 0.580799 0.831666
vt 0.586026 0.838230
vt 0.583955 0.759672
vt 0.573380 0.747537
vt 0.573380 0.846756
vt 0.587104 0.842263
vt 0.580799 0.762627
vt 0.587482 0.846538
vn 0.9904 0.0365 0.1333
vn -0.3567 0.0838 0.9304
vn -0.9788 0.0247 -0.2031
vn 0.3594 0.0025 -0.9332
vn 0.0000 -1.0000 0.0000
vn -0.2347 0.7349 -0.6362
vn -0.7737 0.6063 -0.1838
vn -0.3594 0.0025 -0.9332
vn 0.3567 0.0838 0.9304
vn 0.7737 0.6063 -0.1838
vn -0.8431 0.5298 0.0924
vn -0.9904 0.0365 0.1333
vn 0.9788 0.0247 -0.2031
vn 0.9761 -0.0935 -0.1961
vn -0.9838 -0.1100 0.1416
vn 0.3412 -0.2272 0.9121
vn -0.3588 -0.1261 -0.9249
vn 0.3588 -0.1261 -0.9249
vn -0.9761 -0.0935 -0.1961
vn -0.3412 -0.2272 0.9121
vn 0.9838 -0.1100 0.1416
vn 0.9823 -0.1195 0.1443
vn -0.3384 -0.2219 0.9145
vn -0.9745 -0.1096 -0.1958
vn 0.3560 -0.0872 -0.9304
vn -0.3560 -0.0872 -0.9304
vn 0.3384 -0.2219 0.9145
vn -0.9823 -0.1195 0.1443
vn 0.9745 -0.1096 -0.1958
vn 0.9776 -0.0422 -0.2061
vn -0.9893 -0.0697 0.1279
vn 0.3567 -0.1744 0.9178
vn -0.3593 -0.0040 -0.9332
vn 0.3593 -0.0040 -0.9332
vn -0.9776 -0.0422 -0.2061
vn -0.3567 -0.1744 0.9178
vn 0.9893 -0.0697 0.1279
vn 0.9852 -0.0252 -0.1696
vn -0.9940 -0.0376 0.1030
vn 0.5247 0.0895 0.8466
vn -0.4308 0.1026 -0.8966
vn 0.4308 0.1026 -0.8966
vn -0.9852 -0.0252 -0.1696
vn -0.5247 0.0895 0.8466
vn 0.9940 -0.0376 0.1030
vn 0.9802 0.0587 -0.1890
vn -0.9868 0.0836 0.1384
vn 0.4190 0.2899 0.8605
vn -0.3731 0.0661 -0.9254
vn 0.3731 0.0661 -0.9254
vn -0.9802 0.0587 -0.1890
vn -0.4190 0.2899 0.8605
vn 0.9868 0.0836 0.1384
vn 0.2608 0.9186 -0.2969
vn -0.2608 0.9186 -0.2969
vn -0.2749 0.9598 0.0572
vn 0.2749 0.9598 0.0572
vn 0.2731 0.6766 0.6838
vn 0.8431 0.5298 0.0924
vn 0.2347 0.7349 -0.6362
vn -0.2731 0.6766 0.6838
vn 0.6780 -0.7257 -0.1166
vn -0.9034 -0.4254 0.0537
vn -0.6634 0.6278 0.4072
vn 0.9080 0.3561 0.2207
vn 0.6530 -0.7487 -0.1141
vn -0.2872 -0.9081 -0.3047
vn 0.2683 0.8450 0.4626
vn -0.2773 -0.9545 -0.1100
vn 0.1832 0.5825 0.7919
vn -0.6424 0.4792 0.5981
vn -0.9756 0.0763 0.2059
vn 0.9894 -0.1416 0.0308
vn 0.8902 -0.2699 0.3670
vn 0.6523 -0.7499 -0.1100
vn -0.6044 0.3772 0.7017
vn -0.2707 -0.8567 -0.4391
vn -0.9773 0.0560 0.2042
vn 0.8159 0.2096 0.5388
vn 0.9470 -0.2238 0.2304
vn -0.9126 -0.3974 -0.0961
vn 0.1220 0.3897 0.9128
vn 0.6989 0.1002 0.7081
vn -0.9100 -0.3625 -0.2011
vn -0.9768 0.0548 0.2071
usemtl belph
s off
f 459/639/389 432/640/389 422/641/389 453/642/389
f 457/643/390 428/644/390 426/645/390 454/646/390
f 458/647/391 434/648/391 424/649/391 455/650/391
f 456/651/392 430/652/392 420/653/392 452/654/392
f 435/655/393 433/656/393 423/657/393 429/658/393
f 430/652/394 424/659/394 481/660/394 482/661/394
f 424/649/395 434/648/395 480/662/395 481/663/395
f 431/664/393 435/655/393 429/658/393 419/665/393
f 455/666/396 424/659/396 430/652/396 456/651/396
f 453/667/397 422/668/397 428/644/397 457/643/397
f 421/669/393 427/670/393 435/655/393 431/664/393
f 432/640/398 420/671/398 483/672/398 476/673/398
f 434/648/399 426/674/399 479/675/399 480/662/399
f 427/670/393 425/676/393 433/656/393 435/655/393
f 454/677/400 426/674/400 434/648/400 458/647/400
f 452/678/401 420/671/401 432/640/401 459/639/401
f 451/679/402 436/680/402 443/681/402 450/682/402
f 445/683/403 438/684/403 442/685/403 449/686/403
f 444/687/404 437/688/404 441/689/404 448/690/404
f 446/691/405 439/692/405 440/693/405 447/694/405
f 447/694/406 440/693/406 436/695/406 451/696/406
f 449/686/407 442/685/407 439/697/407 446/698/407
f 448/690/408 441/689/408 438/699/408 445/700/408
f 450/682/409 443/681/409 437/701/409 444/702/409
f 475/703/410 450/682/410 444/702/410 469/704/410
f 473/705/411 448/690/411 445/700/411 470/706/411
f 474/707/412 449/686/412 446/698/412 471/708/412
f 472/709/413 447/694/413 451/696/413 468/710/413
f 471/711/414 446/691/414 447/694/414 472/709/414
f 469/712/415 444/687/415 448/690/415 473/705/415
f 470/713/416 445/683/416 449/686/416 474/707/416
f 468/714/417 451/679/417 450/682/417 475/703/417
f 436/680/418 452/678/418 459/639/418 443/681/418
f 438/684/419 454/677/419 458/647/419 442/685/419
f 437/688/420 453/667/420 457/643/420 441/689/420
f 439/692/421 455/666/421 456/651/421 440/693/421
f 440/693/422 456/651/422 452/654/422 436/695/422
f 442/685/423 458/647/423 455/650/423 439/697/423
f 441/689/424 457/643/424 454/646/424 438/699/424
f 443/681/425 459/639/425 453/642/425 437/701/425
f 419/715/426 467/716/426 466/717/426 431/718/426
f 425/719/427 461/720/427 465/721/427 433/722/427
f 421/723/428 460/724/428 464/725/428 427/726/428
f 423/727/429 462/728/429 463/729/429 429/730/429
f 429/730/430 463/729/430 467/731/430 419/732/430
f 433/722/431 465/721/431 462/733/431 423/734/431
f 427/726/432 464/725/432 461/735/432 425/736/432
f 431/718/433 466/717/433 460/737/433 421/738/433
f 467/716/434 468/714/434 475/703/434 466/717/434
f 461/720/435 470/713/435 474/707/435 465/721/435
f 460/724/436 469/712/436 473/705/436 464/725/436
f 462/728/437 471/711/437 472/709/437 463/729/437
f 463/729/438 472/709/438 468/710/438 467/731/438
f 465/721/439 474/707/439 471/708/439 462/733/439
f 464/725/440 473/705/440 470/706/440 461/735/440
f 466/717/441 475/703/441 469/704/441 460/737/441
f 484/739/442 476/740/442 483/741/442 482/742/442
f 480/743/443 484/739/443 482/742/443 481/744/443
f 479/745/444 478/746/444 484/739/444 480/743/444
f 478/746/445 477/747/445 476/740/445 484/739/445
f 428/644/446 422/668/446 477/747/446 478/746/446
f 422/641/447 432/640/447 476/673/447 477/748/447
f 420/653/448 430/652/448 482/661/448 483/749/448
f 426/645/449 428/644/449 478/746/449 479/745/449
f 497/750/450 498/751/450 488/752/450 487/753/450
f 493/754/451 494/755/451 492/756/451 491/757/451
f 499/758/452 500/759/452 490/760/452 489/761/452
f 495/762/453 496/763/453 486/764/453 485/765/453
f 488/752/454 498/751/454 502/766/454 503/767/454
f 494/768/455 488/752/455 503/767/455 504/769/455
f 489/761/456 490/760/456 496/770/456 495/771/456
f 487/753/457 488/752/457 494/768/457 493/772/457
f 496/770/458 490/760/458 507/773/458 508/774/458
f 490/760/459 500/759/459 506/775/459 507/773/459
f 491/757/460 492/756/460 500/759/460 499/758/460
f 485/765/461 486/764/461 498/751/461 497/750/461
f 502/766/462 509/776/462 501/777/462
f 503/767/463 502/766/463 501/777/463
f 507/773/464 506/775/464 501/778/464
f 504/769/465 503/767/465 501/777/465
f 500/759/466 492/756/466 505/779/466 506/775/466
f 486/764/467 496/763/467 508/780/467 509/776/467
f 498/751/468 486/764/468 509/776/468 502/766/468
f 492/756/469 494/755/469 504/781/469 505/779/469
f 508/774/470 507/773/470 501/778/470
f 509/776/471 508/780/471 501/777/471
f 505/779/472 504/781/472 501/778/472
f 506/775/473 505/779/473 501/778/473
o ArmLeftUpper
v 0.306962 1.897623 0.059130
v 0.306962 1.897623 -0.036126
v 0.404567 1.908383 0.059130
v 0.404567 1.908383 -0.036126
v 0.355764 1.903003 -0.063342
v 0.355764 1.903003 0.072738
v 0.294761 1.896278 0.004698
v 0.416767 1.909728 0.004698
v 0.353223 1.939605 -0.000000
v 0.273844 1.793162 0.101023
v 0.273844 1.793162 -0.072433
v 0.451578 1.812754 -0.072433
v 0.451578 1.812754 0.101023
v 0.362711 1.802958 0.125803
v 0.362711 1.802958 -0.121993
v 0.473794 1.815203 0.001905
v 0.251627 1.790713 0.001905
v 0.306703 1.326917 -0.091227
v 0.483474 1.346403 -0.091227
v 0.480833 1.384441 0.077973
v 0.392070 1.380131 0.102144
v 0.395843 1.325792 -0.139570
v 0.504439 1.365141 -0.018713
v 0.283474 1.340783 -0.018713
v 0.304062 1.364954 0.077973
v 0.289734 1.514529 0.122492
v 0.289734 1.514529 -0.091040
v 0.469646 1.673259 -0.091040
v 0.469646 1.673259 0.122492
v 0.379690 1.593894 0.152997
v 0.379690 1.593894 -0.152049
v 0.492135 1.693100 0.000474
v 0.267244 1.494687 0.000474
v 0.393957 1.316220 -0.018713
v 0.338395 1.463388 -0.075495
v 0.374954 1.425328 -0.204407
v 0.359206 1.366329 -0.056264
v 0.386456 1.362889 -0.175463
v 0.416063 1.492606 -0.064587
v 0.429321 1.445781 -0.196772
v 0.436874 1.395548 -0.045355
v 0.440824 1.383342 -0.167828
v 0.402499 1.360140 -0.046688
v 0.416105 1.359736 -0.165443
v 0.372769 1.498795 -0.074162
v 0.399672 1.448934 -0.206792
v 0.332157 1.408597 -0.068217
v 0.369055 1.389726 -0.191572
v 0.443111 1.450338 -0.052634
v 0.446723 1.418944 -0.180663
v 0.438463 1.326392 -0.292522
v 0.402701 1.361519 -0.250708
v 0.411898 1.347336 -0.242195
v 0.427567 1.345669 -0.236899
v 0.440631 1.358145 -0.238160
v 0.443748 1.376961 -0.244943
v 0.434552 1.391143 -0.253456
v 0.418883 1.392810 -0.258752
v 0.405819 1.380334 -0.257492
vt 0.740919 0.221523
vt 0.711585 0.252705
vt 0.697179 0.242614
vt 0.715168 0.207531
vt 0.680953 0.195948
vt 0.672640 0.235255
vt 0.647363 0.231977
vt 0.644902 0.192454
vt 0.139900 0.699564
vt 0.106187 0.722545
vt 0.096669 0.706232
vt 0.110229 0.679633
vt 0.082858 0.675813
vt 0.081514 0.703041
vt 0.066090 0.704752
vt 0.055575 0.676905
vt 0.080476 0.725169
vt 0.054905 0.720321
vt 0.101221 0.738958
vt 0.079434 0.749480
vt 0.058526 0.737189
vt 0.630253 0.235417
vt 0.615996 0.195401
vt 0.022440 0.693572
vt 0.049221 0.606185
vt 0.006632 0.600293
vt 0.651376 0.150759
vt 0.615996 0.150616
vt 0.735787 0.130003
vt 0.694105 0.141064
vt 0.115286 0.643756
vt 0.083596 0.624266
vt 0.159844 0.658210
vt 0.770056 0.126708
vt 0.756873 0.071572
vt 0.730260 0.083469
vt 0.707259 0.085740
vt 0.684092 0.077122
vt 0.161501 0.546587
vt 0.123432 0.555484
vt 0.083569 0.557396
vt 0.042556 0.557301
vt 0.663680 0.057284
vt 0.004532 0.546587
vt 0.673838 0.012901
vt 0.718822 0.004532
vt 0.712274 0.054706
vt 0.759966 0.025489
vt 0.867516 0.314019
vt 0.909309 0.324361
vt 0.905320 0.334969
vt 0.864532 0.330273
vt 0.863555 0.208983
vt 0.903808 0.209394
vt 0.905320 0.220853
vt 0.864532 0.225549
vt 0.867516 0.241803
vt 0.909309 0.231461
vt 0.915036 0.240959
vt 0.872701 0.257870
vt 0.880072 0.282443
vt 0.921898 0.305969
vt 0.915036 0.314863
vt 0.872701 0.297951
vt 0.930758 0.334660
vt 0.929217 0.340421
vt 0.903808 0.346428
vt 0.928677 0.346529
vt 0.921898 0.249853
vt 0.880072 0.273379
vt 0.863555 0.346839
vt 0.933716 0.226318
vt 0.938225 0.230540
vt 0.930758 0.221162
vt 0.933716 0.329504
vt 0.948823 0.346839
vt 0.948823 0.208983
vt 0.929217 0.215401
vt 0.938225 0.325282
vt 0.928677 0.209293
vn -0.8928 0.3715 -0.2546
vn 0.3840 0.4867 -0.7847
vn 0.8414 0.5017 0.2010
vn -0.2861 0.4334 0.8546
vn -0.4157 0.8629 0.2874
vn 0.2258 0.9287 0.2943
vn 0.1885 0.4704 0.8621
vn -0.4769 0.4196 -0.7723
vn 0.2936 0.8891 -0.3511
vn -0.4710 0.8132 -0.3419
vn 0.8228 0.5041 -0.2625
vn -0.9098 0.3666 0.1949
vn -0.9782 -0.0466 0.2024
vn 0.9488 0.1532 -0.2763
vn -0.5422 0.0472 -0.8389
vn 0.2197 0.1565 0.9629
vn -0.3272 0.0720 0.9422
vn 0.9659 0.1506 0.2105
vn 0.4565 0.1679 -0.8737
vn -0.9631 -0.0435 -0.2655
vn -0.9596 -0.0780 -0.2703
vn 0.5208 0.0086 -0.8536
vn 0.9784 0.0160 0.2062
vn -0.1539 -0.2614 0.9529
vn 0.3558 -0.1581 0.9211
vn -0.5011 -0.0597 -0.8634
vn 0.9629 0.0463 -0.2660
vn -0.9652 -0.1431 0.2189
vn 0.2814 -0.8848 0.3714
vn 0.3285 -0.9444 0.0124
vn -0.1263 -0.9920 0.0056
vn -0.0898 -0.9204 0.3804
vn -0.7999 -0.5788 -0.1583
vn 0.7047 -0.7040 0.0881
vn 0.8546 0.5100 -0.0979
vn -0.6574 0.6516 -0.3785
vn -0.7825 -0.6022 -0.1580
vn -0.1596 -0.9731 0.1660
vn 0.2020 0.9295 -0.3087
vn -0.1256 -0.9921 -0.0055
vn 0.2940 0.7016 -0.6491
vn 0.8728 0.3892 -0.2946
vn 0.9912 -0.1217 0.0511
vn -0.9543 0.0631 -0.2921
vn -0.7919 -0.0867 -0.6044
vn -0.7811 -0.6033 -0.1612
vn 0.8560 0.3040 -0.4182
vn -0.1966 -0.9377 0.2865
vn 0.9881 -0.1459 0.0495
vn -0.5227 0.4759 -0.7073
vn -0.8748 -0.0294 -0.4837
vn 0.6818 -0.6892 0.2451
vn 0.3243 0.5029 -0.8012
vn -0.3914 0.3228 -0.8618
vn 0.6627 -0.6578 0.3578
vn 0.9881 -0.1470 0.0464
usemtl belph
s off
f 526/782/474 516/783/474 511/784/474 520/785/474
f 524/786/475 514/787/475 513/788/475 521/789/475
f 525/790/476 517/791/476 512/792/476 522/793/476
f 523/794/477 515/795/477 510/796/477 519/797/477
f 518/798/478 516/799/478 510/796/478 515/795/478
f 517/791/479 518/798/479 515/795/479 512/792/479
f 522/793/480 512/792/480 515/795/480 523/794/480
f 520/785/481 511/784/481 514/787/481 524/786/481
f 513/800/482 514/801/482 518/798/482 517/791/482
f 514/801/483 511/802/483 516/799/483 518/798/483
f 521/789/484 513/788/484 517/803/484 525/804/484
f 519/797/485 510/796/485 516/799/485 526/805/485
f 535/806/486 519/797/486 526/805/486 542/807/486
f 537/808/487 521/789/487 525/804/487 541/809/487
f 536/810/488 520/785/488 524/786/488 540/811/488
f 538/812/489 522/793/489 523/794/489 539/813/489
f 539/813/490 523/794/490 519/797/490 535/806/490
f 541/814/491 525/790/491 522/793/491 538/812/491
f 540/811/492 524/786/492 521/789/492 537/808/492
f 542/815/493 526/782/493 520/785/493 536/810/493
f 533/816/494 542/815/494 536/810/494 527/817/494
f 531/818/495 540/811/495 537/808/495 528/819/495
f 532/820/496 541/814/496 538/812/496 529/821/496
f 530/822/497 539/813/497 535/806/497 534/823/497
f 529/821/498 538/812/498 539/813/498 530/822/498
f 527/817/499 536/810/499 540/811/499 531/818/499
f 528/819/500 537/808/500 541/809/500 532/824/500
f 534/823/501 535/806/501 542/807/501 533/825/501
f 532/824/502 529/826/502 530/827/502 543/828/502
f 531/818/503 528/819/503 532/824/503 543/828/503
f 527/817/504 531/818/504 543/828/504 533/816/504
f 530/827/505 534/829/505 533/816/505 543/828/505
f 556/830/506 557/831/506 547/832/506 546/833/506
f 552/834/507 553/835/507 551/836/507 550/837/507
f 558/838/508 559/839/508 549/840/508 548/841/508
f 554/842/509 555/843/509 545/844/509 544/845/509
f 547/832/510 557/831/510 561/846/510 562/847/510
f 553/848/511 547/832/511 562/847/511 563/849/511
f 548/841/512 549/840/512 555/850/512 554/851/512
f 546/833/513 547/832/513 553/848/513 552/852/513
f 555/850/514 549/840/514 566/853/514 567/854/514
f 549/840/515 559/839/515 565/855/515 566/853/515
f 550/837/516 551/836/516 559/839/516 558/838/516
f 544/845/517 545/844/517 557/831/517 556/830/517
f 561/846/518 568/856/518 560/857/518
f 562/847/519 561/846/519 560/857/519
f 566/853/520 565/855/520 560/858/520
f 563/849/521 562/847/521 560/857/521
f 559/839/522 551/836/522 564/859/522 565/855/522
f 545/844/523 555/843/523 567/860/523 568/856/523
f 557/831/524 545/844/524 568/856/524 561/846/524
f 551/836/525 553/835/525 563/861/525 564/859/525
f 567/854/526 566/853/526 560/858/526
f 568/856/527 567/860/527 560/857/527
f 564/859/528 563/861/528 560/858/528
f 565/855/529 564/859/529 560/858/529
o ArmLeftLower
v 0.343120 1.010005 0.233200
v 0.348813 0.928016 0.107494
v 0.490058 1.044019 0.224164
v 0.495751 0.962031 0.098458
v 0.423908 0.921598 0.067060
v 0.415776 1.038724 0.246640
v 0.328006 0.958902 0.162498
v 0.511678 1.001420 0.151202
v 0.306703 1.326917 -0.091227
v 0.483474 1.346403 -0.091227
v 0.480833 1.384441 0.077973
v 0.392070 1.380131 0.102144
v 0.395843 1.325792 -0.139570
v 0.504439 1.365141 -0.018713
v 0.283474 1.340783 -0.018713
v 0.304062 1.364954 0.077973
v 0.321118 1.188482 -0.038930
v 0.492601 1.145795 -0.007692
v 0.485974 1.241238 0.138642
v 0.399285 1.276216 0.143928
v 0.408753 1.139869 -0.065121
v 0.511196 1.181364 0.058928
v 0.296842 1.234722 0.019880
v 0.314491 1.283925 0.107404
v 0.367352 0.886375 0.196972
v 0.377924 0.906735 0.246377
v 0.427406 0.868004 0.135180
v 0.379938 0.873087 0.159908
v 0.484581 0.897703 0.196916
v 0.473722 0.882149 0.159863
v 0.424528 0.916074 0.258707
v 0.471707 0.915798 0.246332
v 0.425985 0.881011 0.201180
v 0.331819 1.421534 -0.045601
v 0.343433 1.414601 -0.081858
v 0.388003 1.414039 -0.106029
v 0.431819 1.424344 -0.081858
v 0.442301 1.433713 -0.045601
v 0.430498 1.443363 0.002742
v 0.386117 1.441208 0.014828
v 0.342112 1.433620 0.002742
v 0.387060 1.450155 -0.053511
vt 0.756088 0.465955
vt 0.723529 0.465366
vt 0.729615 0.434034
vt 0.754455 0.435435
vt 0.743098 0.738669
vt 0.719702 0.740529
vt 0.718043 0.714408
vt 0.730260 0.712146
vt 0.691162 0.460213
vt 0.706611 0.424464
vt 0.696869 0.737350
vt 0.705436 0.713720
vt 0.768522 0.575322
vt 0.744314 0.612959
vt 0.724763 0.594666
vt 0.741935 0.559435
vt 0.710796 0.540870
vt 0.703776 0.585280
vt 0.679777 0.584265
vt 0.676826 0.527421
vt 0.790276 0.788953
vt 0.797532 0.856257
vt 0.759683 0.850757
vt 0.754373 0.799739
vt 0.721106 0.813141
vt 0.721687 0.849721
vt 0.684314 0.851524
vt 0.685895 0.823199
vt 0.652426 0.594435
vt 0.648181 0.522877
vt 0.648181 0.856257
vt 0.650784 0.819676
vt 0.670584 0.722661
vt 0.667135 0.451555
vt 0.768256 0.723838
vt 0.781526 0.464179
vt 0.716823 0.696804
vt 0.739666 0.698989
vt 0.694481 0.701140
vt 0.696851 0.685520
vt 0.715987 0.673664
vt 0.735969 0.683821
vt 0.770907 0.430651
vt 0.692392 0.414428
vt 0.690389 0.600982
vt 0.683774 0.607361
vt 0.700765 0.599970
vt 0.732357 0.656359
vt 0.687676 0.664600
vt 0.695050 0.628304
vt 0.709942 0.627029
vt 0.709664 0.605106
vt 0.697959 0.611579
vt 0.681507 0.621595
vt 0.713091 0.613317
vt 0.648181 0.640856
vn -0.3681 -0.7411 -0.5615
vn 0.2692 0.1201 0.9556
vn 0.5514 -0.6191 -0.5591
vn -0.2303 0.0641 0.9710
vn -0.9470 -0.2008 -0.2507
vn 0.5344 -0.2935 -0.7927
vn 0.9692 0.1250 0.2122
vn -0.3268 0.3123 0.8920
vn 0.2177 0.3831 0.8977
vn -0.4465 -0.3581 -0.8200
vn 0.9662 -0.0647 -0.2495
vn -0.9745 -0.0440 0.2198
vn -0.9785 -0.0057 0.2062
vn 0.9710 -0.1069 -0.2137
vn -0.4662 -0.4758 -0.7458
vn 0.2265 0.3960 0.8899
vn -0.3255 0.3616 0.8737
vn 0.9687 0.1153 0.2198
vn 0.5410 -0.4105 -0.7340
vn -0.9485 -0.2246 -0.2235
vn 0.2062 -0.8649 0.4576
vn -0.0392 -0.8858 0.4624
vn -0.0489 -0.9694 0.2407
vn 0.2304 -0.9430 0.2402
vn 0.9452 -0.0936 0.3129
vn -0.8914 -0.2793 0.3568
vn -0.8547 -0.5153 -0.0627
vn 0.9467 -0.3081 -0.0939
vn 0.7572 0.5451 -0.3598
vn 0.3852 0.3576 -0.8507
vn -0.2881 0.7754 0.5620
vn -0.4548 0.2808 -0.8452
vn 0.1424 0.9898 0.0096
vn -0.3428 0.9394 0.0022
vn -0.3723 0.8133 -0.4471
vn 0.2036 0.8623 -0.4637
vn 0.1139 0.8177 0.5642
vn 0.7319 0.6801 0.0429
vn -0.8509 0.3936 -0.3478
vn -0.8496 0.5251 0.0496
usemtl belph
s off
f 570/862/530 573/863/530 595/864/530 596/865/530
f 571/866/531 574/867/531 599/868/531 600/869/531
f 573/863/532 572/870/532 598/871/532 595/864/532
f 574/867/533 569/872/533 594/873/533 599/868/533
f 591/874/534 583/875/534 577/876/534 585/877/534
f 589/878/535 581/879/535 578/880/535 586/881/535
f 590/882/536 582/883/536 579/884/536 587/885/536
f 588/886/537 580/887/537 584/888/537 592/889/537
f 587/885/538 579/884/538 580/887/538 588/886/538
f 585/877/539 577/876/539 581/879/539 589/878/539
f 586/881/540 578/880/540 582/890/540 590/891/540
f 592/889/541 584/888/541 583/892/541 591/893/541
f 569/872/542 592/889/542 591/893/542 575/894/542
f 572/870/543 586/881/543 590/891/543 576/895/543
f 570/862/544 585/877/544 589/878/544 573/863/544
f 571/866/545 587/885/545 588/886/545 574/867/545
f 574/867/546 588/886/546 592/889/546 569/872/546
f 576/896/547 590/882/547 587/885/547 571/866/547
f 573/863/548 589/878/548 586/881/548 572/870/548
f 575/897/549 591/874/549 585/877/549 570/862/549
f 601/898/550 597/899/550 600/869/550 599/868/550
f 593/900/551 601/898/551 599/868/551 594/873/551
f 596/901/552 595/902/552 601/898/552 593/900/552
f 595/902/553 598/903/553 597/899/553 601/898/553
f 576/896/554 571/866/554 600/869/554 597/899/554
f 569/872/555 575/894/555 593/900/555 594/873/555
f 575/897/556 570/862/556 596/865/556 593/904/556
f 572/870/557 576/895/557 597/905/557 598/871/557
f 582/890/558 578/880/558 605/906/558 606/907/558
f 578/880/559 581/879/559 604/908/559 605/906/559
f 584/909/560 580/910/560 608/911/560 609/912/560
f 581/879/561 577/876/561 603/913/561 604/908/561
f 606/907/562 610/914/562 608/911/562 607/915/562
f 608/911/563 610/914/563 602/916/563 609/912/563
f 603/913/564 602/916/564 610/914/564 604/908/564
f 604/908/565 610/914/565 606/907/565 605/906/565
f 580/910/566 579/917/566 607/915/566 608/911/566
f 579/917/567 582/890/567 606/907/567 607/915/567
f 577/876/568 583/875/568 602/916/568 603/913/568
f 583/875/569 584/909/569 609/912/569 602/916/569
